0.14603826449338528,1.6050224952272334e-6,81.68685048099879,3.32676252098057e-15,7.829124802922726,0.024738712168178984,1.7295754303828746e-12,65.5022152992464
1.3962804953322618,31.56261610247791,57.21178812066394,2.77802548950545,16.12718776552951,2.2074159421019777e-15,41.20177248981097,41.29175543788157
11.731094147414641,3.5432667947742172e-15,9.060988653824858e-15,8.572215889393787,5.42264206487292e-15,0.04039044759557594,3.941545096760391e-15,7.141685641378507e-15
3.283443246902143e-15,7.744839573181794e-13,13.412321023538524,0.12231272326226245,3.4055566133530175,5.346615453280776,3.941545096760391e-15,1.139414911451949
3.283443246902143e-15,3.5432667947742172e-15,9.060988653824858e-15,0.27816764897686735,5.42264206487292e-15,5.141378891660604,9.863901884037809,1.1254161171573736
3.283443246902143e-15,1.4811134675236521,84.48279928261239,3.6437450388857804,34.163490296449055,2.2074159421019777e-15,4.075064494209503e-8,30.520518540445103
4.654265246058338,1.6525444529236903,0.10678789510644386,3.32676252098057e-15,5.42264206487292e-15,3.9679511430453687,3.941545096760391e-15,0.00032828551987139115
0.9554720661413049,17.19027068101313,58.526663474208554,6.66272006927069,29.358499240627506,2.2074159421019777e-15,19.202739467621907,55.575674474801026
6.368969645496978,33.6311502689555,0.3893654146731825,8.64958128385597,5.42264206487292e-15,3.8660110147692683,0.1982399445095486,3.7406094524446004e-5
4.57049082202778,3.5432667947742172e-15,9.060988653824858e-15,5.927824985920815e-15,5.42264206487292e-15,4.237526022541029,48.41908239207239,7.141685641378507e-15
2.4290058590765002,78.76899585644324,7.894507850910974e-6,10.79602795652553,0.16431076564082442,5.053033781625939,3.668790151182463e-14,1.1710690040466023e-12
0.043101114081484336,2.8271716292283817,51.336137978698524,1.8382362649645356,30.916546642319698,2.2074159421019777e-15,0.12427629314252732,73.60357252573856
3.283443246902143e-15,0.3288433331762351,11.460453627784805,0.4009034305093362,15.186339442134827,2.2074159421019777e-15,0.0021557437028072194,90.48797108935872
0.5607509806023246,4.437275464348336,0.0017814725816058478,7.9113333886617845,48.86919639275203,2.2074159421019777e-15,2.2415697206790317,0.013474330840438168
0.43288797143913077,4.555337629607341,57.4242960399858,5.239541568135982,43.09097912129093,2.2074159421019777e-15,6.9964141121603545,35.860543557380446
10.599631841955395,2.0452403249163926,36.80313844013455,3.844478606297832,15.014135625324066,2.2074159421019777e-15,15.970927723134695,15.240936160265603
10.838624494030723,0.019908018716835545,8.807061942479704,2.785985499793489,5.9921417620790205,2.2074159421019777e-15,3.504814821033896e-11,8.891667819077195
11.872945695723933,1.1865392450778542,32.77217148550875,7.907994151283374,28.991280524973874,2.2074159421019777e-15,0.1984329613157914,32.85365030772515
9.788105224763997,3.5432667947742172e-15,9.060988653824858e-15,1.43251067598753,5.42264206487292e-15,0.023828543692919268,3.941545096760391e-15,7.141685641378507e-15
