0.16919460932305733,155.01977455553057
15.401101751848879,176.1683241493527
20.343700484404017,3.125206058858117e-14
6.242845726182644,17.183374998704657
8.515044960335736,7.89381958149694
0.3452222200370791,153.94644444662958
9.151076634763609,1.2308003878901106
10.11160755562695,177.36043191805717
24.54453328614529,28.558821692209676
23.855958191375205,33.37114104526598
28.750840372086046,68.46054174173504
0.2361793398638877,160.45286310830988
9.090727646589487e-15,117.86666666666665
14.802822334568745,49.2325594158968
4.68061546195909,148.919384538041
19.842143444190285,79.67634527783825
14.500952878281788,22.834436657930226
21.18818845199205,94.59482591961667
11.244444444444458,3.125206058858117e-14
