2.7688921863324558e-15,3.299974886442053e-15,20.942923884810657,32.81143526739849,0.2252124694379564,4.1189305370936605e-15,0.023504490867761903,100.22624344670896,0.959649605629868
0.012260369656731608,0.6304823669100561,17.732370687531528,22.516848506674116,1.2499212113769658,42.19274048617939,2.2456387314450778e-15,87.0867403421225,20.14806193075037
9.338626400636821,3.299974886442053e-15,3.942093370444735e-15,4.911498402890028e-15,10.963541097776554,4.1189305370936605e-15,0.04153298599062061,8.106717962007566e-15,4.134858998285427e-15
0.14454524409634703,5.06035189226933e-9,2.374446561017038,0.3872873091633405,3.417412169099297e-15,4.1189305370936605e-15,5.3604232254174145,12.374699532077893,2.7848188480549063
1.571478547110151,6.134142002843987e-5,1.5361108949341292e-13,5.154925035609245,3.417412169099297e-15,3.596706037476706,5.25962100191696,0.8260725781772735,1.2214527855391401e-10
4.008417302345267,0.07191913687485907,17.445364105467092,18.5771235600766,3.70032013738909e-11,4.1189305370936605e-15,2.2456387314450778e-15,89.02488211282588,25.16396044903995
2.3273387002134157e-14,1.149749498112315e-9,0.2640103407805933,4.911498402890028e-15,4.755241410259094,4.1189305370936605e-15,3.89791588299197,0.6784569350056052,0.7862524524666789
6.213548035151557,6.095210768865293,16.426022455589244,35.3959060091565,0.9109931477710872,15.66830906409978,2.2456387314450778e-15,84.28157559069878,22.480474402352005
4.376830376364208,36.14409487810825,2.303371279093485,4.911498402890028e-15,5.751783880422325,0.023821715865820124,4.041092543461999,8.106717962007566e-15,0.4623603050388705
2.7688921863324558e-15,3.299974886442053e-15,3.942093370444735e-15,12.092707341883708,2.87491393976328,37.51028843458892,4.749189520405285,8.106717962007566e-15,4.134858998285427e-15
0.6189957882737418,74.12330402495212,6.853373629659696,4.911498402890028e-15,2.980849564858727,6.989563795896749e-10,5.02138265569494,2.1606103995651378e-10,7.613476449466898
1.849520112240805,1.9639015636456536,14.673850271782353,43.18380785234066,0.058655710516420795,0.03392949414891397,2.2456387314450778e-15,81.13234474773584,17.793032695763056
0.4714283115936265,0.07516069451596115,8.615033663508436,51.16460153044467,3.417412169099297e-15,4.1189305370936605e-15,2.2456387314450778e-15,54.417222854914215,3.123219611689805
9.556080661525186,0.0021561636326439555,2.1313167462854574,14.753661375011694,0.4771858658684001,0.014475492139976618,2.2456387314450778e-15,2.839261819788664e-7,37.10050516207601
6.178145519125101,2.7458363441688105,15.034433715759128,30.488353353257864,0.41620922921147285,3.1823009047567656,2.2456387314450778e-15,65.2920228339162,30.2626980998047
4.961951502679537,14.590955145647102,6.614870516348078,19.71542701269045,10.274537717660904,2.211487230622204,2.2456387314450778e-15,32.72576596529282,8.423493631087432
3.129920014999933,0.13479959782329445,2.227938480502497,5.64688366639418,10.385605194453682,2.897298829147021e-10,2.2456387314450778e-15,11.862836680068037,3.947405901680672
8.474039266514337,2.73668368103753,8.198675758758895,22.898784115010994,11.06644679901983,5.959287074420762e-7,2.2456387314450778e-15,43.52613149609145,18.88225265924696
1.7270604914327568,3.299974886442053e-15,0.12915056670010225,4.911498402890028e-15,9.364432920955744,4.1189305370936605e-15,0.023800465355842137,8.106717962007566e-15,4.134858998285427e-15
