3.057077803911234e-15,3.301353467414609e-10,0.004357584776820242,2.133701877298581e-15,2.875172136328261e-15,0.021746837369755762,38.37866812566818,52.211955422825724,29.94085655445184,26.324340373707606,0.13455805322348707,8.172486212500145
12.191829525925796,5.005529737468478,12.50287717143397,14.399414744333455,3.29748344937484,1.9559410613997333e-15,25.51649803738342,52.86001430502752,28.338350849487412,15.18300220808338,1.9213233410341474e-15,22.27442587268331
3.057077803911234e-15,2.4846865136784047e-15,3.345270571557706e-15,2.133701877298581e-15,20.290914121679403,0.05156850170543733,4.970143813254362e-15,6.1584828459612074e-15,4.4303256580915865e-15,3.661423575695215e-15,0.0012178610191704113,3.4912495888146077e-15
1.6162004092939003e-8,4.006508914205191e-5,2.584293309554539,2.133701877298581e-15,2.875172136328261e-15,5.4250006555998995,8.221953535077562,3.2665569376689176,1.1770692921856614,2.6461797607440585,1.9213233410341474e-15,0.10512715280550287
2.0550703267839867,5.603422763881006,3.345270571557706e-15,2.133701877298581e-15,0.10245325425127898,5.433287335453963,4.970143813254362e-15,3.2146308614623784,2.7534348514460562e-14,3.661423575695215e-15,1.9213233410341474e-15,3.4912495888146077e-15
5.3059189129755815,1.9426806926365237,20.056636617453723,4.3994482531206e-6,2.875172136328261e-15,1.9559410613997333e-15,53.20775108233878,35.48124039016216,14.521164783769358,19.27060909922977,0.029978058068865814,4.475682630583677
3.057077803911234e-15,2.4846865136784047e-15,9.661177185496165e-14,1.8707872509463108,3.4452637117683524e-15,4.126894729608937,8.619698350115759e-14,6.1584828459612074e-15,4.4303256580915865e-15,4.284065537156546e-6,3.966116373176762,0.41807438485596893
12.510287457174783,8.35512137239023,17.914970300594163,5.497639351673379,2.380049272874014,1.9559410613997333e-15,40.571610870963326,50.96734669739311,23.146185196382632,15.673102746760216,9.141716396336249e-11,10.455726207386924
10.94972556896115,4.5346953867671754e-14,7.4745951512409075e-6,13.774063633109344,2.3988295823156642,4.878707209830871,0.39276696727809546,6.1584828459612074e-15,0.1879316429556762,6.44226246192339,1.7337696416566186,12.345290795728953
3.057077803911234e-15,36.357728452559535,3.345270571557706e-15,2.133701877298581e-15,10.092174341613196,4.567903000399516,4.970143813254362e-15,6.209293442068961,4.4303256580915865e-15,3.661423575695215e-15,1.9213233410341474e-15,3.4912495888146077e-15
11.130528595895765,2.4846865136784047e-15,4.524794553312701,14.092024249936642,5.5551688248994555,4.964625095289735,3.0839170347885747,6.1584828459612074e-15,1.8450985213693136,19.52631166881862,0.00024422742140068655,32.48866934208888
2.443587282405354,2.3285015791637487,14.943752940231173,0.036963379652076384,0.0022740524666503797,1.9559410613997333e-15,34.239037879991045,54.02559372551586,28.736622127054503,12.765568833258905,0.046972492749198555,11.12016815568521
0.5801520157194877,0.5105064724286159,10.27392763590688,2.133701877298581e-15,2.875172136328261e-15,1.9559410613997333e-15,20.653524884987327,55.15249320983467,28.861095539856326,1.7770887006222211,1.9213233410341474e-15,0.057878207311135764
12.554238509775024,1.2377356302758702,25.186720283720028,0.9950901470684895,1.0139864206284437,1.9559410613997333e-15,0.11667014298706485,10.655753015796384,0.5645454107492375,0.9644517862483403,4.413479265549132e-5,10.746146268424015
9.764980234569927,0.34651238654099903,7.629982851276473,1.9572896196722627,0.741265649932169,1.9559410613997333e-15,4.227755097913448,42.50692396086695,27.152634087301138,21.126921553013947,3.325842943083836e-8,38.14573452565424
1.218501028823354,7.762201040910208,6.1230160929019855,1.8779313857283042,11.909785790349456,1.9559410613997333e-15,14.88006828864173,21.29443876727935,11.461733368410751,8.35570274073972,3.9169199681629374,10.718190250080752
0.03462533768826953,2.2452040873179206,1.3517309795887658,0.6425790008273934,6.210478519589052,1.9559410613997333e-15,3.5950925364218813,6.425006731899725,3.941997877753805,2.472011749396027,6.7609990354829,3.6556636802462767
11.055520007088516,3.7679695353546547,15.227975226565343,2.4811539227641117,1.6632454733478323,1.9559410613997333e-15,27.42433165282695,26.987823618486463,9.423610779588724,6.890995684853079,9.880309554393335,0.9800789163397223
3.057077803911234e-15,2.4846865136784047e-15,3.345270571557706e-15,2.133701877298581e-15,3.5670024880950604,0.01877762089036191,4.970143813254362e-15,6.1584828459612074e-15,4.4303256580915865e-15,3.661423575695215e-15,7.658664335459019,3.4912495888146077e-15
