0.17746654478100127,151.45122682510927,3.560275794963406
8.712643521335552,119.75346200055279,63.10332037931327
20.343700483687638,1.6690931301112924e-14,7.163544975750565e-10
5.923742277289224,13.897470087419297,3.6050083601787786
8.67947492140204,7.729389620430642,1.2236429988348309e-14
4.965577426855352e-10,102.2540659503658,52.037600715804295
8.921809674152595,0.5498069212443817,0.9102604272567428
4.102582020186822,118.25502970678943,65.11442774670795
17.020318204032282,0.35772057328093376,35.72531620104175
25.0193011327813,32.20779802956808,7.429185991652249e-8
15.606690912984961,0.21939502469254651,81.38529617614363
0.002695714982700603,130.4777988716482,30.208547861542858
7.797026748178087e-15,112.27415755203786,5.592509114628851
1.1865026333013569,11.844288022496647,51.004591094667546
0.8632528298345017,90.00407667348007,62.73267049668542
16.19551770961052,56.771302909917154,26.551668102500894
13.674589204997027,18.545629231902822,5.115171099312166
16.053404445171203,63.49997364513194,36.22963628130555
11.094485872476398,0.41784801323222814,1.1887597391322795e-12
