pH,Porosity,DissCO2,SMCO2
0.016222,0.000000,0.000681,3.363309
0.048937,0.000281,0.043105,3.015118
0.081651,0.000561,0.066267,2.666927
0.114365,0.000842,0.065236,2.318737
0.147079,0.001140,0.064206,1.970546
0.176708,0.001464,0.063175,1.622355
0.154620,0.001789,0.062724,1.274164
0.132531,0.002113,0.062409,0.925973
0.110443,0.002363,0.062094,0.577782
0.088354,0.002546,0.061779,0.234538
0.066266,0.002796,0.061176,0.056520
0.044177,0.002905,0.060266,0.000000
0.022089,0.002908,0.059356,0.011674
0.000000,0.002912,0.058447,0.023349
0.026076,0.002915,0.057537,0.035023
0.063511,0.002919,0.056627,0.046698
0.100946,0.002922,0.055784,0.058372
0.138381,0.002926,0.055410,0.070046
0.175816,0.002929,0.052230,0.081721
0.213251,0.002933,0.042598,0.093395
0.250686,0.002936,0.032967,0.105069
0.305658,0.002938,0.028539,0.116744
0.365244,0.002938,0.024929,0.128418
0.424829,0.002938,0.021318,0.140093
0.484415,0.002938,0.017708,0.151767
0.544000,0.002938,0.014097,0.163441
0.603586,0.002937,0.011918,0.176292
0.663171,0.002937,0.010417,0.192840
0.722757,0.002936,0.008916,0.209388
0.782342,0.002935,0.007415,0.225936
0.841928,0.002934,0.005915,0.242484
0.901513,0.002933,0.005422,0.259031
0.961099,0.002933,0.005023,0.275579
1.020684,0.002932,0.004624,0.292127
1.080270,0.002931,0.004225,0.308675
1.208860,0.002930,0.003826,0.325223
1.366740,0.002929,0.003427,0.341771
1.524619,0.002929,0.003028,0.358318
1.682498,0.002928,0.002629,0.374866
1.878864,0.002927,0.002230,0.391414
2.210541,0.002926,0.001831,0.407962
2.542218,0.002923,0.001587,0.424510
2.873895,0.002920,0.001417,0.441058
3.205573,0.002917,0.001247,0.441961
3.537250,0.002914,0.001078,0.441961
3.868927,0.002911,0.000908,0.441961
3.945141,0.002908,0.000738,0.441961
3.934804,0.002905,0.000568,0.441961
3.924468,0.002902,0.000398,0.441961
3.914131,0.002899,0.000228,0.441961
3.903795,0.002896,0.000058,0.441351
3.893459,0.002893,0.000009,0.440466
3.883122,0.002891,0.000023,0.439582
3.872786,0.002892,0.000037,0.438697
3.862450,0.002892,0.000051,0.437812
3.852113,0.002893,0.000064,0.436927
3.841777,0.002893,0.000078,0.436043
3.831440,0.002893,0.000092,0.435158
3.821104,0.002894,0.000106,0.434273
3.810768,0.002894,0.000120,0.433388
3.800431,0.002895,0.000134,0.432504
3.790095,0.002895,0.000147,0.431619
3.779759,0.002896,0.000161,0.430734
3.769422,0.002896,0.000175,0.429849
3.759086,0.002897,0.000189,0.428965
3.748749,0.002897,0.000203,0.428080
3.744443,0.002898,0.000217,0.427195
3.742263,0.002898,0.000231,0.426310
3.740082,0.002899,0.000244,0.425426
3.737901,0.002899,0.000258,0.424541
3.735721,0.002900,0.000272,0.423656
3.733540,0.002900,0.000286,0.422771
3.731359,0.002901,0.000300,0.421887
3.729179,0.002901,0.000314,0.421002
3.726998,0.002902,0.000327,0.420117
3.724817,0.002902,0.000340,0.419228
3.722636,0.002903,0.000326,0.418327
3.720456,0.002904,0.000312,0.417426
3.718275,0.002905,0.000298,0.416525
3.716094,0.002906,0.000284,0.415624
3.713914,0.002906,0.000270,0.414724
3.711733,0.002907,0.000257,0.413823
3.709552,0.002908,0.000243,0.412922
3.707372,0.002909,0.000229,0.412021
3.705191,0.002910,0.000215,0.411120
3.703010,0.002911,0.000201,0.410219
3.700829,0.002912,0.000187,0.409319
3.698649,0.002913,0.000174,0.408418
3.696468,0.002914,0.000160,0.407517
3.694287,0.002915,0.000146,0.406616
3.692107,0.002916,0.000132,0.405715
3.689926,0.002917,0.000118,0.404815
3.687745,0.002918,0.000104,0.403914
3.685565,0.002918,0.000091,0.403013
3.683384,0.002919,0.000077,0.402112
3.681203,0.002920,0.000063,0.401211
3.679022,0.002921,0.000049,0.400310
3.676842,0.002922,0.000035,0.399410
3.674661,0.002923,0.000021,0.398509
3.672480,0.002924,0.000008,0.397608
3.670300,0.002925,0.000000,0.396419
3.668119,0.002926,0.000000,0.394681
3.665938,0.002927,0.000000,0.392942
3.663758,0.002927,0.000000,0.391204
3.661577,0.002927,0.000000,0.389466
3.659396,0.002928,0.000000,0.387728
3.657215,0.002928,0.000000,0.385989
3.655035,0.002929,0.000000,0.384251
3.652854,0.002929,0.000000,0.382513
3.650673,0.002930,0.000000,0.380775
3.648493,0.002930,0.000000,0.379036
3.647595,0.002931,0.000000,0.377298
3.648327,0.002931,0.000000,0.375560
3.649059,0.002932,0.000000,0.373821
3.649790,0.002932,0.000000,0.372083
3.650522,0.002933,0.000000,0.370345
3.651253,0.002933,0.000000,0.368607
3.651985,0.002934,0.000000,0.366868
3.652717,0.002934,0.000000,0.365130
3.653448,0.002935,0.000000,0.363392
3.654180,0.002935,0.000000,0.361654
3.654911,0.002935,0.000000,0.359915
3.655643,0.002936,0.000000,0.358177
3.656375,0.002936,0.000000,0.356439
3.657106,0.002937,0.000000,0.354700
3.657838,0.002937,0.000000,0.352962
3.658569,0.002938,0.000000,0.350777
3.659301,0.002939,0.000000,0.348123
3.660033,0.002940,0.000000,0.345469
3.660764,0.002940,0.000000,0.342816
3.661496,0.002941,0.000000,0.340162
3.662227,0.002942,0.000000,0.337508
3.662959,0.002943,0.000000,0.334855
3.663691,0.002944,0.000000,0.332201
3.664422,0.002945,0.000000,0.329547
3.665154,0.002946,0.000000,0.326893
3.665885,0.002947,0.000000,0.324240
3.666617,0.002948,0.000000,0.321586
3.667349,0.002949,0.000000,0.318932
3.668080,0.002950,0.000000,0.316279
3.668812,0.002951,0.000000,0.313625
3.669543,0.002952,0.000000,0.310971
3.670275,0.002953,0.000000,0.308318
3.671007,0.002954,0.000000,0.305664
3.671738,0.002955,0.000000,0.303010
3.672470,0.002956,0.000000,0.300357
3.673201,0.002957,0.000000,0.297703
3.673933,0.002958,0.000000,0.295049
3.674665,0.002959,0.000000,0.292395
3.675396,0.002960,0.000000,0.289742
3.676128,0.002961,0.000000,0.287088
3.676859,0.002962,0.000000,0.284577
3.677591,0.002962,0.000000,0.283625
3.678323,0.002963,0.000000,0.282672
3.679054,0.002963,0.000000,0.281719
3.679766,0.002964,0.000000,0.280766
3.680474,0.002964,0.000000,0.279813
3.681183,0.002965,0.000000,0.278861
3.681891,0.002965,0.000000,0.277908
3.682600,0.002965,0.000000,0.276955
3.683308,0.002966,0.000000,0.276002
3.684017,0.002966,0.000000,0.275049
3.684725,0.002967,0.000000,0.274097
3.685434,0.002967,0.000000,0.273144
3.686142,0.002968,0.000000,0.272191
3.686851,0.002968,0.000000,0.271238
3.687559,0.002969,0.000000,0.270285
3.688268,0.002969,0.000000,0.269333
3.688976,0.002970,0.000000,0.268380
3.689685,0.002970,0.000000,0.267427
3.690393,0.002971,0.000000,0.266474
3.691102,0.002971,0.000000,0.265521
3.691810,0.002971,0.000000,0.264569
3.692519,0.002972,0.000000,0.263616
3.693227,0.002972,0.000000,0.262663
3.693936,0.002973,0.000000,0.260885
3.694644,0.002973,0.000000,0.258278
3.695353,0.002974,0.000000,0.255671
3.696061,0.002975,0.000000,0.253064
3.696770,0.002976,0.000000,0.250457
3.697478,0.002977,0.000000,0.247849
3.698187,0.002978,0.000000,0.245242
3.698895,0.002979,0.000000,0.242635
3.699604,0.002980,0.000000,0.240028
3.700312,0.002981,0.000000,0.237421
3.701021,0.002982,0.000000,0.234814
3.701729,0.002983,0.000000,0.232206
3.702438,0.002984,0.000000,0.229599
3.703146,0.002985,0.000000,0.226992
3.703855,0.002986,0.000000,0.224385
3.704563,0.002987,0.000000,0.221778
3.705272,0.002988,0.000000,0.219171
3.705980,0.002989,0.000000,0.216564
3.706689,0.002990,0.000000,0.213956
3.707397,0.002991,0.000000,0.211349
3.708106,0.002992,0.000000,0.208742
3.708814,0.002992,0.000000,0.206135
3.709523,0.002993,0.000000,0.203528
3.710231,0.002994,0.000000,0.200921
3.710940,0.002995,0.000000,0.198314
3.711648,0.002996,0.000000,0.195706
