Calcite,&,(--),&,0.000011,&,0,&,0.000774,&,6,\\\hline
Dolomite,&,(--),&,-0.000137,&,0,&,0.001845,&,76,\\\hline
Ankerite,&,(--),&,-0.0022,&,9,&,-0.000028,&,0,\\\hline
Siderite,&,(--),&,-0.000011,&,0,&,0.000689,&,22,\\\hline
Albite,&,(--),&,-0.001769,&,200,&,-0.000002,&,0,\\\hline
Clinochlore,&,(--),&,-0.000755,&,57,&,0.000025,&,0,\\\hline
Illite,&,(--),&,-0.000132,&,199,&,0,&,0,\\\hline
Kaolinite,&,(--),&,-0.00003,&,0,&,0.0012,&,200,\\\hline
Smectite,&,(--),&,-0.000003,&,0,&,0.000211,&,200,\\\hline
Na$^{+}$,&,(mol/L),&,-0.001468,&,0,&,0.041861,&,29,\\\hline
K$^{+}$,&,(mol/L),&,-0.000009,&,0,&,0.000729,&,58,\\\hline
Ca$^{2+}$,&,(mol/L),&,-0.0003,&,0,&,0.007057,&,9,\\\hline
Mg$^{2+}$,&,(mol/L),&,-0.000028,&,0,&,0.000296,&,8,\\\hline
HCO$_{3}^{+}$,&,(mol/L),&,-0.00409,&,0,&,0.051685,&,20,\\\hline
Fe$^{2+}$,&,(mol/L),&,0,&,50,&,0.000049,&,8,\\\hline
pH,&,(--),&,5.149519,&,18,&,8.912806,&,55,\\\hline
Porosity,&,(\%),&,0.124954,&,58,&,0.125065,&,9,\\\hline
Aq. CO$_2$,&,(mol/L),&,0.000236,&,95,&,0.023683,&,16,\\\hline
SMCO$_2$,&,kg,&,0,&,0,&,0.781541,&,50,\\\hline