Na,K,Ca,Mg,HCO3,Fe
0.000000,0.000000,0.000000,0.000000,0.000000,0.000002
0.000800,0.000013,0.044434,0.002810,0.218208,0.000585
0.001599,0.000026,0.064196,0.004377,0.216088,0.000546
0.002364,0.000039,0.065037,0.004253,0.213968,0.000507
0.002590,0.000052,0.065878,0.004128,0.211847,0.000467
0.002816,0.000065,0.066719,0.004004,0.209727,0.000434
0.003043,0.000069,0.067122,0.003879,0.207606,0.000421
0.003257,0.000073,0.066702,0.003754,0.205486,0.000413
0.003457,0.000077,0.066282,0.003630,0.202686,0.000412
0.003656,0.000081,0.065862,0.003505,0.197952,0.000410
0.004629,0.000089,0.064718,0.003271,0.193217,0.000372
0.006982,0.000128,0.061625,0.003006,0.188483,0.000322
0.010329,0.000166,0.058345,0.002628,0.183748,0.000270
0.013676,0.000205,0.055168,0.002215,0.179014,0.000219
0.019752,0.000243,0.052060,0.001803,0.174279,0.000167
0.024225,0.000289,0.048952,0.001390,0.171393,0.000115
0.025830,0.000336,0.045844,0.001262,0.171398,0.000102
0.027406,0.000368,0.044001,0.001211,0.171099,0.000089
0.028807,0.000383,0.042474,0.001161,0.168624,0.000076
0.030208,0.000398,0.040946,0.001111,0.166149,0.000065
0.030672,0.000412,0.039754,0.001060,0.163675,0.000060
0.031024,0.000427,0.038741,0.001010,0.161200,0.000054
0.031377,0.000442,0.037729,0.000960,0.158725,0.000048
0.031729,0.000455,0.036717,0.000910,0.156250,0.000043
0.032082,0.000469,0.036239,0.000859,0.153776,0.000037
0.032129,0.000482,0.035882,0.000809,0.152115,0.000031
0.032147,0.000494,0.035526,0.000787,0.150995,0.000028
0.032165,0.000503,0.035169,0.000770,0.149876,0.000025
0.032184,0.000512,0.034812,0.000753,0.148756,0.000023
0.032202,0.000520,0.034456,0.000737,0.147636,0.000020
0.032220,0.000520,0.034099,0.000720,0.146517,0.000018
0.032174,0.000518,0.033742,0.000703,0.145397,0.000015
0.031623,0.000515,0.033385,0.000686,0.144277,0.000013
0.031072,0.000513,0.033029,0.000669,0.143158,0.000011
0.030488,0.000511,0.032672,0.000653,0.142038,0.000010
0.029721,0.000508,0.032325,0.000636,0.140918,0.000010
0.028954,0.000501,0.032194,0.000628,0.139333,0.000009
0.028187,0.000492,0.032063,0.000624,0.137707,0.000008
0.026521,0.000483,0.031932,0.000621,0.136081,0.000008
0.024824,0.000474,0.031800,0.000617,0.134455,0.000007
0.023111,0.000465,0.031669,0.000614,0.132829,0.000007
0.021397,0.000458,0.031538,0.000610,0.130420,0.000006
0.019683,0.000460,0.031407,0.000607,0.127652,0.000006
0.017968,0.000463,0.031276,0.000603,0.124885,0.000005
0.016463,0.000465,0.031144,0.000600,0.122118,0.000005
0.015124,0.000467,0.031013,0.000596,0.121152,0.000005
0.013786,0.000469,0.030882,0.000596,0.120612,0.000005
0.012447,0.000471,0.030751,0.000599,0.120072,0.000005
0.011945,0.000473,0.030620,0.000601,0.119532,0.000005
0.011536,0.000476,0.030488,0.000603,0.118992,0.000004
0.011127,0.000478,0.030357,0.000605,0.118595,0.000004
0.010717,0.000480,0.030226,0.000605,0.118299,0.000004
0.010369,0.000480,0.030095,0.000604,0.118004,0.000004
0.010132,0.000479,0.029964,0.000602,0.117708,0.000004
0.009895,0.000479,0.029834,0.000601,0.117412,0.000004
0.009659,0.000478,0.029874,0.000599,0.117116,0.000003
0.009422,0.000478,0.029914,0.000598,0.116821,0.000003
0.009185,0.000478,0.029954,0.000596,0.116525,0.000003
0.008948,0.000477,0.029994,0.000595,0.116229,0.000003
0.008711,0.000477,0.030034,0.000593,0.115933,0.000003
0.008474,0.000476,0.030074,0.000592,0.115638,0.000002
0.008244,0.000472,0.030114,0.000590,0.115346,0.000002
0.008156,0.000468,0.030154,0.000589,0.115306,0.000002
0.008069,0.000464,0.030194,0.000587,0.115266,0.000002
0.007981,0.000460,0.030234,0.000586,0.115225,0.000002
0.007893,0.000456,0.030274,0.000584,0.115185,0.000002
0.007805,0.000452,0.030314,0.000583,0.115145,0.000001
0.007717,0.000448,0.030353,0.000581,0.115105,0.000001
0.007630,0.000444,0.030393,0.000580,0.115064,0.000001
0.007542,0.000440,0.030433,0.000578,0.115024,0.000001
0.007454,0.000436,0.030473,0.000577,0.114984,0.000001
0.007366,0.000434,0.030513,0.000576,0.114944,0.000001
0.007278,0.000432,0.030553,0.000574,0.114904,0.000000
0.007205,0.000430,0.030593,0.000573,0.114863,0.000000
0.007174,0.000428,0.030607,0.000571,0.114823,0.000000
0.007143,0.000426,0.030620,0.000570,0.114783,0.000000
0.007113,0.000424,0.030633,0.000569,0.114798,0.000000
0.007082,0.000422,0.030646,0.000570,0.114815,0.000000
0.007052,0.000420,0.030659,0.000570,0.114833,0.000000
0.007021,0.000418,0.030672,0.000571,0.114850,0.000000
0.006990,0.000416,0.030685,0.000572,0.114868,0.000000
0.006960,0.000415,0.030698,0.000572,0.114886,0.000000
0.006929,0.000414,0.030710,0.000573,0.114903,0.000000
0.006898,0.000413,0.030723,0.000573,0.114921,0.000000
0.006868,0.000412,0.030736,0.000574,0.114938,0.000000
0.006837,0.000412,0.030741,0.000574,0.114956,0.000000
0.006806,0.000411,0.030740,0.000575,0.114973,0.000000
0.006776,0.000410,0.030739,0.000576,0.114991,0.000000
0.006745,0.000409,0.030738,0.000576,0.115008,0.000000
0.006715,0.000408,0.030738,0.000577,0.115026,0.000000
0.006684,0.000407,0.030737,0.000577,0.115043,0.000000
0.006653,0.000407,0.030736,0.000578,0.115061,0.000000
0.006623,0.000406,0.030735,0.000578,0.115078,0.000000
0.006592,0.000406,0.030734,0.000579,0.115096,0.000000
0.006561,0.000406,0.030734,0.000580,0.115113,0.000000
0.006541,0.000406,0.030733,0.000580,0.115131,0.000000
0.006553,0.000406,0.030732,0.000581,0.115148,0.000000
0.006564,0.000405,0.030731,0.000581,0.115166,0.000000
0.006576,0.000405,0.030731,0.000582,0.115184,0.000000
0.006587,0.000405,0.030730,0.000582,0.115201,0.000000
0.006598,0.000405,0.030729,0.000583,0.115216,0.000000
0.006610,0.000405,0.030727,0.000584,0.115220,0.000000
0.006621,0.000404,0.030708,0.000584,0.115225,0.000000
0.006633,0.000404,0.030690,0.000585,0.115230,0.000000
0.006644,0.000404,0.030671,0.000585,0.115234,0.000000
0.006656,0.000404,0.030653,0.000586,0.115239,0.000000
0.006667,0.000404,0.030634,0.000586,0.115244,0.000000
0.006677,0.000403,0.030615,0.000587,0.115249,0.000000
0.006686,0.000403,0.030597,0.000588,0.115253,0.000000
0.006695,0.000404,0.030578,0.000588,0.115258,0.000000
0.006704,0.000404,0.030559,0.000589,0.115263,0.000000
0.006713,0.000404,0.030541,0.000589,0.115268,0.000000
0.006723,0.000404,0.030522,0.000590,0.115272,0.000000
0.006732,0.000404,0.030504,0.000590,0.115277,0.000000
0.006741,0.000404,0.030485,0.000591,0.115282,0.000000
0.006750,0.000404,0.030466,0.000591,0.115287,0.000000
0.006759,0.000403,0.030448,0.000592,0.115291,0.000000
0.006769,0.000403,0.030429,0.000593,0.115296,0.000000
0.006778,0.000403,0.030410,0.000593,0.115301,0.000000
0.006787,0.000403,0.030392,0.000594,0.115306,0.000000
0.006796,0.000402,0.030373,0.000594,0.115310,0.000000
0.006805,0.000402,0.030355,0.000595,0.115315,0.000000
0.006815,0.000402,0.030336,0.000595,0.115320,0.000000
0.006824,0.000401,0.030317,0.000596,0.115325,0.000000
0.006833,0.000401,0.030299,0.000597,0.115329,0.000000
0.006842,0.000401,0.030280,0.000597,0.115334,0.000000
0.006851,0.000401,0.030261,0.000597,0.115335,0.000000
0.006861,0.000400,0.030243,0.000597,0.115336,0.000000
0.006870,0.000400,0.030245,0.000597,0.115336,0.000000
0.006879,0.000400,0.030247,0.000597,0.115336,0.000000
0.006888,0.000399,0.030250,0.000597,0.115337,0.000000
0.006897,0.000399,0.030252,0.000597,0.115337,0.000000
0.006907,0.000399,0.030255,0.000597,0.115338,0.000000
0.006916,0.000399,0.030257,0.000596,0.115338,0.000000
0.006925,0.000399,0.030260,0.000596,0.115338,0.000000
0.006934,0.000399,0.030262,0.000596,0.115339,0.000000
0.006931,0.000399,0.030265,0.000596,0.115339,0.000000
0.006927,0.000400,0.030267,0.000596,0.115340,0.000000
0.006923,0.000400,0.030270,0.000596,0.115340,0.000000
0.006919,0.000401,0.030272,0.000596,0.115341,0.000000
0.006914,0.000401,0.030275,0.000596,0.115341,0.000000
0.006910,0.000402,0.030277,0.000596,0.115341,0.000000
0.006906,0.000402,0.030280,0.000595,0.115342,0.000000
0.006902,0.000403,0.030282,0.000595,0.115342,0.000000
0.006897,0.000403,0.030285,0.000595,0.115343,0.000000
0.006893,0.000403,0.030287,0.000595,0.115343,0.000000
0.006889,0.000404,0.030289,0.000595,0.115343,0.000000
0.006884,0.000404,0.030292,0.000595,0.115344,0.000000
0.006880,0.000405,0.030294,0.000595,0.115344,0.000000
0.006876,0.000405,0.030297,0.000595,0.115345,0.000000
0.006872,0.000406,0.030299,0.000595,0.115345,0.000000
0.006867,0.000406,0.030302,0.000594,0.115345,0.000000
0.006863,0.000406,0.030304,0.000594,0.115346,0.000000
0.006859,0.000405,0.030307,0.000594,0.115346,0.000000
0.006854,0.000405,0.030309,0.000594,0.115347,0.000000
0.006850,0.000405,0.030312,0.000594,0.115347,0.000000
0.006846,0.000404,0.030314,0.000594,0.115348,0.000000
0.006842,0.000404,0.030317,0.000594,0.115348,0.000000
0.006837,0.000404,0.030319,0.000594,0.115348,0.000000
0.006833,0.000403,0.030322,0.000593,0.115349,0.000000
0.006829,0.000403,0.030324,0.000593,0.115349,0.000000
0.006825,0.000403,0.030326,0.000593,0.115350,0.000000
0.006820,0.000402,0.030329,0.000593,0.115350,0.000000
0.006816,0.000402,0.030331,0.000593,0.115350,0.000000
0.006812,0.000402,0.030334,0.000593,0.115351,0.000000
0.006807,0.000401,0.030336,0.000593,0.115351,0.000000
0.006803,0.000401,0.030339,0.000593,0.115352,0.000000
0.006799,0.000401,0.030341,0.000593,0.115352,0.000000
0.006795,0.000400,0.030344,0.000592,0.115352,0.000000
0.006790,0.000400,0.030346,0.000592,0.115353,0.000000
0.006786,0.000400,0.030349,0.000592,0.115353,0.000000
0.006782,0.000399,0.030351,0.000592,0.115354,0.000000
0.006778,0.000399,0.030354,0.000592,0.115354,0.000000
0.006773,0.000399,0.030356,0.000592,0.115355,0.000000
0.006769,0.000399,0.030359,0.000592,0.115355,0.000000
0.006765,0.000399,0.030361,0.000592,0.115355,0.000000
0.006760,0.000399,0.030360,0.000591,0.115356,0.000000
0.006756,0.000399,0.030359,0.000591,0.115356,0.000000
0.006752,0.000398,0.030358,0.000590,0.115357,0.000000
0.006753,0.000398,0.030357,0.000589,0.115357,0.000000
0.006754,0.000398,0.030357,0.000589,0.115357,0.000000
0.006756,0.000398,0.030356,0.000588,0.115358,0.000000
0.006757,0.000398,0.030355,0.000588,0.115358,0.000000
0.006758,0.000398,0.030354,0.000587,0.115359,0.000000
0.006759,0.000398,0.030354,0.000586,0.115359,0.000000
0.006760,0.000398,0.030353,0.000586,0.115359,0.000000
0.006761,0.000398,0.030352,0.000585,0.115360,0.000000
0.006763,0.000398,0.030351,0.000585,0.115360,0.000000
0.006764,0.000398,0.030350,0.000584,0.115361,0.000000
0.006765,0.000398,0.030350,0.000584,0.115361,0.000000
0.006766,0.000398,0.030349,0.000583,0.115362,0.000000
0.006767,0.000399,0.030348,0.000582,0.115362,0.000000
0.006768,0.000399,0.030347,0.000582,0.115362,0.000000
0.006770,0.000399,0.030347,0.000581,0.115363,0.000000
0.006771,0.000399,0.030346,0.000581,0.115363,0.000000
0.006772,0.000400,0.030345,0.000580,0.115364,0.000000
0.006773,0.000400,0.030344,0.000580,0.115364,0.000000
0.006774,0.000400,0.030343,0.000579,0.115364,0.000000
0.006775,0.000401,0.030343,0.000578,0.115365,0.000000
0.006776,0.000401,0.030342,0.000578,0.115365,0.000000
0.006778,0.000401,0.030341,0.000577,0.115366,0.000000
