0.120085089,33302278.19
1.204968092,33709145.68
4.596857202,33675208.95
9.428394977,33673155.84
20.28751801,33307740.34
30,33307740.34
50,33307740.34
60,33307740.34
150,33307740.34
200,33307740.34