62.71845526185974,3.664001680867285e-15,2.4665033389235006e-15,0.9525241957510585,24.747447286816676,4.670809362963876,9.370827044782809,2.0231725730170032e-13,5.378480549247468e-15,39.33033816454693
5.5961402960107385e-15,3.664001680867285e-15,4.0188743862782905,1.846416301025014,4.534571670488399e-15,4.4613979077700195e-15,23.99587154186618,7.529319986971595,21.186094360435483,4.557179707976671e-15
5.5961402960107385e-15,1.5290764528129475,9.164327662069091,0.0655020524576115,4.534571670488399e-15,4.4613979077700195e-15,3.720828548923046e-15,3.090688802920258e-15,15.046748899190513,4.557179707976671e-15
48.961162569288675,2.5689349282033676,5.544133051495228,1.6861860517211774e-15,26.57145851700276,20.591348210051102,10.995357707550367,13.427578313553735,4.6583848136706654e-11,35.63477131633451
10.04292264251311,0.6752471606214209,1.9421222109674634,1.6861860517211774e-15,6.339076510818783,5.42440847842913,14.528946415917837,6.9213279595151045,19.932683419581966,7.584341317120738
44.61650222877397,5.24396941401812,4.685295077825843,1.6861860517211774e-15,30.59806779623995,20.398625203160385,14.161084356360854,12.726627268524227,8.20803955847628,37.12857354891717
0.06465893857856274,3.369542832300481e-7,0.020526105132720178,3.5680579053910217,0.031207795786857985,0.18006469068852898,0.15087355914992903,1.0283531507675539e-11,5.378480549247468e-15,0.013155788013150836
42.84374887164241,4.697962373356178,4.642544221018279,1.6861860517211774e-15,27.78714828626772,24.634906969353057,22.68548864276421,14.452263072857217,20.16617740594339,34.039760156797534
2.631261132990397,0.05374581008010729,2.4665033389235006e-15,3.4546178439791966,0.00012459274860931611,12.797668959624342,3.720828548923046e-15,2.106332762914358,17.53406440417119,4.557179707976671e-15
5.5961402960107385e-15,3.664001680867285e-15,3.1858703823797427e-10,3.413401772280318,1.77202209700422,5.334584732539712e-13,9.623243314210036,3.765907044529532,19.444287395579043,0.30036914530848896
6.813005313520136,15.589144618316928,1.2501027399281008,3.3783823017491588,0.10803217928484733,37.170176144731165,3.720828548923046e-15,10.867854855280735,18.48239275627406,5.739765523257873e-12
43.00720808471995,4.928805697980045,5.9947948294184625,1.6861860517211774e-15,31.605863614735348,11.43453229668809,18.4476543188274,11.21850571236079,1.0624961800719708,38.60607905364384
37.85313158521495,0.07245262516459644,4.573675062206065,1.6861860517211774e-15,29.00512316096456,0.027763634122977904,23.027752291907127,7.62384793410604,1.498250182304814,35.092651411332795
1.606162393040256,27.542376326785412,7.651016280216492,1.6861860517211774e-15,3.2889211009621278,2.410440257629713,8.960065067042914,14.035346997535202,4.169996627270115,2.5229629090829837
15.270375349435959,32.872926871921294,2.976460164056349,1.6861860517211774e-15,31.474588335347182,19.516905305286336,7.666187809778873,0.5924709225730833,0.35703473116280227,31.226980049733527
1.0524219570584055,1.7649888865550337e-5,0.03434758594361411,1.6861860517211774e-15,2.7980202323036036,0.6703362352835104,0.07100516851008147,0.3589868026774389,24.029249822096606,2.2800280299948184
3.972858058496727,0.1677230612575487,0.36434205073681786,1.6861860517211774e-15,2.725169434051878,2.384853720054868,2.1007142066650615,1.054931412719591,24.05509841652652,3.279247911095917
0.8128228775880464,19.53497495264594,6.421065994207433,1.6861860517211774e-15,3.8682580005451332,5.469197626052497,8.151314467846968,12.485908794445958,12.187656095075296,2.688577076845981
5.5961402960107385e-15,3.664001680867285e-15,2.4665033389235006e-15,0.1558433464651777,4.534571670488399e-15,4.4613979077700195e-15,3.720828548923046e-15,3.090688802920258e-15,24.701299510677682,4.557179707976671e-15
