time(Yr),siderite,dolomite,calcite,ankerite
1,0.000044,0.000032,0.000083,0.00001
2,0.000172,0.000228,0.000105,0.00001
3,0.000348,0.000403,0.000244,0.00001
4,0.000529,0.000558,0.000454,0.00001
5,0.000672,0.000696,0.000685,0.00001
6,0.000742,0.000815,0.000892,0.00001
7,0.00075,0.000919,0.001054,0.00001
8,0.00072,0.001007,0.001174,0.00001
9,0.000678,0.001082,0.001257,0.00001
10,0.000643,0.001143,0.001305,0.00001
11,0.000615,0.001192,0.001323,0.00001
12,0.000595,0.001231,0.001313,0.00001
13,0.000581,0.00126,0.001279,0.00001
14,0.000574,0.00128,0.001226,0.00001
15,0.000572,0.001292,0.001156,0.00001
16,0.000574,0.001298,0.001074,0.00001
17,0.000581,0.001299,0.000982,0.00001
18,0.000591,0.001295,0.000885,0.00001
19,0.000603,0.001288,0.000785,0.00001
20,0.000617,0.001279,0.000688,0.00001
21,0.000633,0.001268,0.000595,0.00001
22,0.000649,0.001258,0.000512,0.00001
23,0.000665,0.001248,0.000438,0.00001
24,0.000681,0.001241,0.000374,0.00001
25,0.000695,0.001237,0.000318,0.00001
26,0.000707,0.001237,0.000271,0.00001
27,0.000717,0.001241,0.000232,0.00001
28,0.000725,0.001249,0.0002,0.00001
29,0.000732,0.001261,0.000174,0.00001
30,0.000738,0.001276,0.000155,0.00001
31,0.000742,0.001294,0.000141,0.00001
32,0.000745,0.001315,0.000133,0.00001
33,0.000746,0.001338,0.000128,0.00001
34,0.000747,0.001364,0.000128,0.00001
35,0.000746,0.001391,0.000131,0.00001
36,0.000745,0.00142,0.000137,0.00001
37,0.000743,0.001451,0.000145,0.00001
38,0.00074,0.001482,0.000155,0.00001
39,0.000736,0.001514,0.000167,0.00001
40,0.000732,0.001547,0.000178,0.00001
41,0.000728,0.001579,0.00019,0.00001
42,0.000723,0.001612,0.000202,0.00001
43,0.000718,0.001644,0.000212,0.00001
44,0.000713,0.001675,0.000221,0.00001
45,0.000708,0.001705,0.000228,0.00001
46,0.000703,0.001734,0.000232,0.00001
47,0.000698,0.001762,0.000233,0.00001
48,0.000693,0.001787,0.00023,0.00001
49,0.000689,0.00181,0.000223,0.00001
50,0.000685,0.001831,0.000211,0.00001
51,0.000681,0.001849,0.000197,0.00001
52,0.000678,0.001865,0.000183,0.00001
53,0.000676,0.001879,0.00017,0.00001
54,0.000674,0.00189,0.00016,0.00001
55,0.000672,0.001899,0.000151,0.00001
56,0.000671,0.001906,0.000144,0.00001
57,0.00067,0.001912,0.000138,0.00001
58,0.00067,0.001916,0.000134,0.00001
59,0.00067,0.001918,0.000131,0.00001
60,0.00067,0.001919,0.00013,0.00001
61,0.00067,0.001919,0.000129,0.00001
62,0.000671,0.001917,0.00013,0.00001
63,0.000672,0.001915,0.000131,0.00001
64,0.000673,0.001911,0.000133,0.00001
65,0.000674,0.001907,0.000136,0.00001
66,0.000675,0.001902,0.00014,0.00001
67,0.000676,0.001897,0.000144,0.00001
68,0.000678,0.001891,0.000148,0.00001
69,0.000679,0.001885,0.000153,0.00001
70,0.000681,0.001878,0.000158,0.00001
71,0.000682,0.001872,0.000163,0.00001
72,0.000683,0.001866,0.000168,0.00001
73,0.000685,0.001859,0.000173,0.00001
74,0.000686,0.001854,0.000178,0.00001
75,0.000687,0.001848,0.000182,0.00001
76,0.000688,0.001844,0.000186,0.00001
77,0.000689,0.00184,0.000189,0.00001
78,0.000689,0.001836,0.000192,0.00001
79,0.00069,0.001834,0.000195,0.00001
80,0.00069,0.001831,0.000197,0.00001
81,0.000691,0.001829,0.000199,0.00001
82,0.000691,0.001828,0.000201,0.00001
83,0.000691,0.001827,0.000202,0.00001
84,0.000691,0.001826,0.000203,0.00001
85,0.000691,0.001826,0.000204,0.00001
86,0.00069,0.001825,0.000205,0.00001
87,0.00069,0.001825,0.000205,0.00001
88,0.00069,0.001825,0.000205,0.00001
89,0.000689,0.001826,0.000206,0.00001
90,0.000689,0.001826,0.000206,0.00001
91,0.000689,0.001826,0.000206,0.00001
92,0.000688,0.001826,0.000206,0.00001
93,0.000688,0.001826,0.000205,0.00001
94,0.000687,0.001826,0.000205,0.00001
95,0.000687,0.001825,0.000205,0.00001
96,0.000686,0.001825,0.000205,0.00001
97,0.000686,0.001825,0.000205,0.00001
98,0.000685,0.001824,0.000205,0.00001
99,0.000685,0.001823,0.000205,0.00001
100,0.000685,0.001822,0.000205,0.00001
101,0.000684,0.001821,0.000205,0.00001
102,0.000684,0.00182,0.000206,0.00001
103,0.000684,0.001819,0.000206,0.00001
104,0.000684,0.001818,0.000207,0.00001
105,0.000683,0.001816,0.000208,0.00001
106,0.000683,0.001814,0.000209,0.00001
107,0.000683,0.001812,0.00021,0.00001
108,0.000683,0.001811,0.000211,0.00001
109,0.000683,0.001808,0.000212,0.00001
110,0.000683,0.001806,0.000214,0.00001
111,0.000683,0.001804,0.000215,0.00001
112,0.000683,0.001802,0.000216,0.00001
113,0.000683,0.001799,0.000218,0.00001
114,0.000683,0.001797,0.000219,0.00001
115,0.000684,0.001794,0.000221,0.00001
116,0.000684,0.001792,0.000223,0.00001
117,0.000684,0.001789,0.000224,0.00001
118,0.000684,0.001787,0.000226,0.00001
119,0.000684,0.001784,0.000227,0.00001
120,0.000684,0.001782,0.000229,0.00001
121,0.000684,0.001779,0.00023,0.00001
122,0.000684,0.001777,0.000232,0.00001
123,0.000685,0.001774,0.000233,0.00001
124,0.000685,0.001772,0.000235,0.00001
125,0.000685,0.00177,0.000236,0.00001
126,0.000685,0.001768,0.000237,0.00001
127,0.000685,0.001766,0.000238,0.00001
128,0.000685,0.001764,0.000239,0.00001
129,0.000685,0.001763,0.00024,0.00001
130,0.000685,0.001761,0.000241,0.00001
131,0.000685,0.00176,0.000242,0.00001
132,0.000685,0.001758,0.000243,0.00001
133,0.000685,0.001757,0.000244,0.00001
134,0.000685,0.001756,0.000244,0.00001
135,0.000685,0.001755,0.000245,0.00001
136,0.000685,0.001754,0.000246,0.00001
137,0.000685,0.001752,0.000246,0.00001
138,0.000685,0.001751,0.000247,0.00001
139,0.000685,0.00175,0.000247,0.00001
140,0.000685,0.001749,0.000247,0.00001
141,0.000685,0.001748,0.000248,0.00001
142,0.000685,0.001747,0.000248,0.00001
143,0.000685,0.001746,0.000249,0.00001
144,0.000685,0.001745,0.000249,0.00001
145,0.000685,0.001744,0.000249,0.00001
146,0.000685,0.001743,0.00025,0.00001
147,0.000685,0.001742,0.00025,0.00001
148,0.000685,0.001741,0.000251,0.00001
149,0.000685,0.001739,0.000251,0.00001
150,0.000685,0.001738,0.000252,0.00001
151,0.000685,0.001737,0.000252,0.00001
152,0.000685,0.001735,0.000253,0.00001
153,0.000685,0.001734,0.000253,0.00001
154,0.000685,0.001732,0.000254,0.00001
155,0.000685,0.00173,0.000254,0.00001
156,0.000685,0.001728,0.000255,0.00001
157,0.000685,0.001727,0.000256,0.00001
158,0.000685,0.001725,0.000256,0.00001
159,0.000685,0.001723,0.000257,0.00001
160,0.000685,0.001721,0.000258,0.00001
161,0.000685,0.001719,0.000258,0.00001
162,0.000685,0.001717,0.000259,0.00001
163,0.000685,0.001715,0.00026,0.00001
164,0.000685,0.001713,0.000261,0.00001
165,0.000685,0.00171,0.000262,0.00001
166,0.000685,0.001708,0.000262,0.00001
167,0.000685,0.001706,0.000263,0.00001
168,0.000685,0.001704,0.000264,0.00001
169,0.000685,0.001701,0.000265,0.00001
170,0.000685,0.001699,0.000266,0.00001
171,0.000685,0.001697,0.000267,0.00001
172,0.000685,0.001694,0.000268,0.00001
173,0.000685,0.001692,0.000269,0.00001
174,0.000685,0.00169,0.00027,0.00001
175,0.000685,0.001687,0.000271,0.00001
176,0.000685,0.001685,0.000272,0.00001
177,0.000685,0.001682,0.000273,0.00001
178,0.000685,0.00168,0.000274,0.00001
179,0.000685,0.001678,0.000275,0.00001
180,0.000685,0.001675,0.000276,0.00001
181,0.000685,0.001673,0.000277,0.00001
182,0.000685,0.001671,0.000278,0.00001
183,0.000685,0.001668,0.000279,0.00001
184,0.000685,0.001666,0.00028,0.00001
185,0.000685,0.001664,0.000281,0.00001
186,0.000685,0.001662,0.000282,0.00001
187,0.000685,0.001659,0.000283,0.00001
188,0.000685,0.001657,0.000284,0.00001
189,0.000685,0.001655,0.000285,0.00001
190,0.000685,0.001653,0.000287,0.00001
191,0.000685,0.001651,0.000288,0.00001
192,0.000685,0.001649,0.000289,0.00001
193,0.000685,0.001647,0.00029,0.00001
194,0.000685,0.001645,0.000291,0.00001
195,0.000685,0.001644,0.000292,0.00001
196,0.000685,0.001642,0.000293,0.00001
197,0.000685,0.00164,0.000294,0.00001
198,0.000685,0.001639,0.000296,0.00001
199,0.000685,0.001637,0.000297,0.00001
200,0.000685,0.001636,0.000298,0.00001