2.08e-322,7.905825971144592e-252,1.1482117198563968e-104,1.611185278492844e-73,4.0684162547172695
6.126579818698426e-29,0.03782180863858777,0.7487117205163158,0.11406972460010277,3.505375615567843
1.9181026502287645e-103,0.03519815161273351,1.6394454766907276,0.7184125777818108,2.5660485048379833
1.7946073612881315e-121,1.4703344584070695e-21,2.410064264581194,1.596003882117499,1.5497831140255154
2.0141285705530213e-101,1.8002294910480214e-30,2.864951773527227,2.5407495336012365,0.6846380614659177
7.585961294567851e-42,0.11313325235778432,2.830354910688337,3.3672144611643047,0.16840447178841148
0.07590893182792337,0.29182552141937357,2.3774414189912205,4.006656262015487,0.00012013414429405988
0.17382783512487243,0.5065683927930235,1.7274971485523503,4.471933722056127,0.048497239295303834
0.2710976247028104,0.720863847427168,1.0867609552769855,4.787098695145051,0.18185246809351954
0.36330425845654973,0.9017408623886294,0.6010918282168356,4.963033931136742,0.3115542770875395
0.44778199519358824,1.050241775171568,0.2565401888910577,5.021559669227977,0.4335079338037384
0.5319694892151227,1.172608191541708,0.021089749129663604,4.981134580535447,0.553917441797404
0.5912962766378127,1.255931692236272,1.6729406684564408e-9,4.814787711328523,0.6293410900534232
0.6764641355077851,1.316451553588346,3.221201297521954e-9,4.600137184202163,0.7239606669470797
0.74417245212597,1.3613953221562152,0.09662966070903568,4.3184995102399135,0.8049332038826356
0.819016563589988,1.3810224024850013,0.2664439450301549,3.985862027193678,0.8769130099719996
0.8753935691908615,1.387963587722738,0.5181258026599315,3.612888058994422,0.9278505619315416
0.9466254161617292,1.3765594358197628,0.7949573933049596,3.2222011645278283,0.977009240866039
1.0159671288068983,1.3559894636054286,1.0972940846068486,2.820469590686472,1.0198264598587843
1.070420592208898,1.3331076104656916,1.423091124057645,2.4286943213335044,1.04472688221734
1.1396850075036524,1.2971949010291381,1.74113796525535,2.055642167189069,1.0652740351767036
1.1956507765813364,1.26739516669128,2.0466412987946243,1.7200783750375968,1.0713618314525164
1.252212916010963,1.235940894366695,2.3285703955799857,1.420792064469348,1.0711956577601767
1.3243812588409194,1.2036523194769304,2.568296943098973,1.164097600510996,1.0702100255378584
1.3826472213342,1.1841268234914448,2.783766308052759,0.9369650039872731,1.0649838629486257
1.4412357144897638,1.1739005075746014,2.95752905009435,0.7461792823889787,1.0615037799612714
1.5012199591125386,1.173580823052916,3.0921197808823497,0.587069602838416,1.060556270001012
1.5452674464083953,1.1870356360123584,3.2046882829007535,0.45452852676677596,1.0557642307890625
1.6051847756481954,1.2036825310696055,3.2770051942863927,0.3480791025847802,1.0574605349128885
1.6646001564393589,1.2257703850322887,3.3214525665398846,0.2702773511951048,1.0580848972518944
1.7093507786768238,1.2607616969763917,3.3495563384815954,0.21023701055415261,1.0565851613746489
1.7529821363508578,1.3005677085424463,3.3524913776414684,0.1750499417642874,1.0548953799935448
1.8123058070825089,1.3410628379125957,3.316236346187905,0.1537945394080813,1.0672530822929762
1.8557900936253446,1.3902815201728145,3.2796835089672802,0.15090310386989098,1.0683961459898363
1.899668287228445,1.4430456870041992,3.2188565745328668,0.15982878963358835,1.0768131425984184
1.9430396907469696,1.498046933815404,3.149167437065238,0.18109947132201631,1.0828329455374175
1.9834013408642712,1.5559641667227282,3.0654684711609144,0.212024893014535,1.0916326584023759
2.025640639692261,1.6154287034087802,2.968464065078379,0.24998660104772627,1.1039115750301298
2.0653229137217584,1.6762838976855163,2.8579567088512396,0.2973999337672699,1.1191985863697826
2.1026078915358823,1.7374775111514789,2.7497461216712327,0.34195953390625244,1.1350584186984802
2.1402362793893372,1.796425887917802,2.639468511014595,0.39038830130917723,1.1506169593338968
2.175163019635355,1.857531666920674,2.520898944864357,0.4402632000556187,1.170418835274931
2.192956080130768,1.9210268186410597,2.4226229693264716,0.48089444445806057,1.1847775788319364
2.207929944041418,1.981249090890386,2.3277607419796333,0.5190031544289028,1.2000844585684205
2.222485271074379,2.0393666346338217,2.2387432274530035,0.5491812500046129,1.217207150878747
2.233350108733004,2.093631899669252,2.158477412083298,0.5691092423108232,1.2368655784252753
2.2425784017162527,2.1459516730216324,2.0867333800707275,0.5777717671217323,1.258788283268888
2.250094936473909,2.191975997184342,2.0272891274113847,0.5711072756492406,1.2844896588897763
2.241344084781603,2.2377652599272224,2.001808386092297,0.5466237921420535,1.301834850670212
2.2472532357943455,2.2750101933519744,1.9762454897907973,0.5042571896125434,1.3305189910990753
2.2372973530891964,2.3122668884494075,1.9719270073275355,0.4521016497910018,1.3540399183405372
2.2428657282583604,2.338991712203996,1.9623312189962896,0.40196115986846664,1.3807379183390018
2.2347639681778833,2.365807989559623,1.9734094412420884,0.3529306081676043,1.3956322610537915
2.2278182946052536,2.38802020958544,1.97813635503313,0.31568899040580495,1.4088367701063242
2.237056564882641,2.401407134908598,1.966957364797598,0.2841639191039353,1.429146110004431
2.2332420055880777,2.4155117521748153,1.9737517069664596,0.25754305759480267,1.436769899930058
2.2288068224648816,2.4274835567482906,1.97851883908639,0.23538977669141392,1.4438351568911483
2.2407671955991537,2.42950289851877,1.972670674627663,0.22297912406504408,1.4524899053972087
2.2384991188132672,2.4334795072182405,1.979544997135166,0.2120450055771298,1.4537172433247416
2.238155736414941,2.435724726677006,1.981611945483613,0.2081758708761583,1.4540185666591412
2.2373010534489066,2.4365570254757105,1.9842255845947991,0.2047020577295303,1.4542908252702633
2.253805933064398,2.427324454691926,1.976184187966102,0.21037242802563863,1.456409785049284
2.2535956371467263,2.4225859754072707,1.982591824708433,0.21472969469336614,1.4512697422726804
2.2545447449848943,2.414750013989605,1.9873760610993205,0.22261400441303783,1.4458803026217302
2.2567118502922963,2.406754818096854,1.9894832638235735,0.23383314853877987,1.4400423868227539
2.258621645270205,2.3972998734169813,1.9894998703585534,0.24938088473107256,1.4334697214355572
2.261495447930754,2.38773252224123,1.9894767244108835,0.26433019440089206,1.4271542626021907
2.2644162662213576,2.3748864403036123,1.9979518009453445,0.27930819399219015,1.4164335076187076
2.266669444282692,2.363186275798626,1.9959014486191533,0.29872508383032365,1.4095595140046535
2.285684811143184,2.343713288865526,1.9879003040175651,0.3194837467931444,1.4055392271334064
2.2892653114681867,2.3325737823881934,1.9857468038907666,0.33816323228676604,1.3987462222376712
2.2928458120041815,2.3214342759376567,1.9835933011102418,0.3568427220003611,1.3919532163768287
2.296110012828044,2.306342973534472,1.9900014213088282,0.3756898774633991,1.3809311298457967
2.3146256575651556,2.2916740457625453,1.9729951064859093,0.3966229685187515,1.381087994462794
2.3175888532918374,2.2799083026433236,1.9735422844386725,0.4115081709527764,1.375176888646077
2.3353978013443464,2.266811530761123,1.9586663138206153,0.42871109984532524,1.375811296680841
2.3525894445787485,2.2530885225075803,1.9464910272785294,0.44211973267390137,1.377327608205796
2.3561262514787233,2.246734325000542,1.9405671715518074,0.4525086815140674,1.3763803339640137
2.3724124813267284,2.2360619723502992,1.9273780008907486,0.46632353066672044,1.377440362019526
2.375242590912981,2.2312799296282253,1.9235844930430244,0.47298231703532395,1.376970629588523
2.392602152014631,2.221215061917145,1.9129294688561023,0.48212648441836686,1.3788173315640195
2.4089506956233975,2.2145413365569175,1.8938159391458227,0.4918404049002495,1.3848121342561588
2.410621400671357,2.2128567757208453,1.8916458402796827,0.4949721361113001,1.3845918007086877
2.428043276050037,2.206790535418438,1.8750664542698203,0.5000153762811301,1.3913732782637172
2.4296245892661155,2.207304366492809,1.8723260160132733,0.5032112410312592,1.390748584778584
2.447452164366164,2.20299153659383,1.8477553017560808,0.5080226983314964,1.4021635189673511
2.4487794858459395,2.20355219377421,1.8476521596522517,0.5072852894638665,1.4022445073874104
2.465857979956888,2.1997311733426894,1.833139718566219,0.508459391990706,1.4093273124248629
2.4677556017814246,2.2041968068747613,1.8218376095160418,0.5114876093035192,1.4129317161961714
2.484834097420387,2.200375787605892,1.8073251606083527,0.5126617137237746,1.4200145246856661
2.4882153695934086,2.2028432301461245,1.8069920840891167,0.510908945104122,1.4198240647687494
2.4906750215032627,2.206503426717708,1.7987708141161902,0.5096618056462873,1.4241860751456479
2.5078628399010703,2.2034022976532777,1.7868322654834181,0.5067636604903486,1.4317983474674905
2.510322492698537,2.2070624948242967,1.7786109910950212,0.5055165223613669,1.4361603595400014
2.529544332816254,2.2029498706587893,1.7644389366529678,0.5056111357600295,1.4433760845834775
2.5320039866565227,2.2066100685260803,1.756217657061149,0.5043639992519513,1.4477380986356356
2.549809115360426,2.2041351802766833,1.7415783960121565,0.5052601579569478,1.454468478954587
2.554048797499096,2.2068307079530514,1.7337609153344813,0.5030725038142614,1.4591396241641805
2.5719433189013605,2.2021574287403562,1.7196919885325783,0.5039045301012054,1.4662743668120064
2.574449975418036,2.202538886097984,1.7199690001976107,0.5026860598874231,1.4662310592663006
2.592750203793103,2.1996190221620524,1.6979087084614826,0.5032863157311291,1.477999271822108
2.612226043004479,2.195459577259766,1.6810993203071458,0.5073142131714292,1.4845093306560406
2.614369384367424,2.1951679701391336,1.681439730755141,0.5062347175723286,1.4846422405880986
2.632517904017014,2.190447869580869,1.6647334746688227,0.5110000271699559,1.4910713146638361
2.6371009763477558,2.190898184155563,1.654849002966252,0.5126815242744504,1.4954411507088126
2.6553388895189713,2.1839796934225317,1.6387130766483347,0.5173827027728557,1.5022745888070779
2.6735768039623347,2.1770612037393144,1.6225771437571006,0.5220838828382838,1.5091080297737465
2.6756108265452268,2.176049709278585,1.6203436334798502,0.5250766434242842,1.5087114837170583
2.695628768293412,2.1681665489476156,1.6046115039701871,0.5288373039216883,1.5158540546904955
2.698369493769801,2.165582904307525,1.6002476160226602,0.535560237667255,1.5149799770659
2.716244096648996,2.1579913531217283,1.5841750634678757,0.5404003968288017,1.5219896434011804
2.7341187009367616,2.1503998030971156,1.56810250367326,0.545240557703901,1.5289993128857746
2.7386394529475875,2.146851487205312,1.564142422799594,0.5510229715177523,1.5284343633255948
2.75651405901861,2.139259938664172,1.548069853786226,0.5558631347029488,1.535444036723481
2.774689652763394,2.128342819054007,1.5378583136966015,0.5646652273391565,1.5373426936313384
2.792818259937852,2.1207044515497375,1.5191484009604144,0.5734386785779593,1.5436467033715595
2.7957576943204034,2.116642301738264,1.5179287798883905,0.5760252208712533,1.543706438970532
2.815213623516535,2.1095645917840957,1.4991157222616254,0.5840612634749285,1.5500914389727036
2.833540940792172,2.1004477200458833,1.4835500706487932,0.588698323608051,1.5573292651917057
2.8362816703212435,2.0978640787697698,1.479186161197401,0.5954212647819078,1.5564551951716552
2.8546089896907563,2.0887472087701986,1.4636204987409633,0.6000583278012614,1.5636930258482051
2.8727376068956905,2.081108849326247,1.4449105345661883,0.608831793166753,1.569997056394696
2.875634631155621,2.075966335580491,1.451618971623071,0.6115111033707844,1.565247069391414
2.893763249536574,2.068327977261306,1.432909001157902,0.6202845702811266,1.571551102597041
2.9116378688802045,2.060736439713846,1.4168363638749006,0.6251247506624398,1.5785608047841273
2.9144879136546433,2.058872682987577,1.4150463924840102,0.6277754314219364,1.578216183714362
2.9323625350964297,2.051281147117307,1.3989737444282015,0.6326156147645229,1.5852258902804768
2.950600473217907,2.044362676780781,1.382837689539818,0.6373168266611622,1.5920593821371223
2.952997813898569,2.0440242490313736,1.3805407643625764,0.6401706197535143,1.5914866235268166
2.970872439702255,2.036432716574391,1.3644680940628935,0.6450108092664681,1.598496339090358
2.9873303599743175,2.0304789241776637,1.347928188322903,0.6506525536846726,1.605020719946776
2.990180405526347,2.0286151681227382,1.3461382126232095,0.6533032361099477,1.6046761003222352
3.007965646763978,2.0232220322129555,1.3294951676059832,0.6582075705302726,1.611281469234462
3.0104722981088816,2.0236034853590272,1.329772204055549,0.6569890957696316,1.6112381508618028
3.028257541605658,2.018210351130357,1.313129147626501,0.6618934335045903,1.61784352431132
3.0447154701444528,2.0122565649414668,1.2965892001555905,0.6675351900733311,1.6243679216012243
3.0476748246936993,2.0111126886221147,1.2973731943129412,0.6661136020659323,1.6245527391288974
3.0654600733145623,2.0057195582242833,1.2807301120268633,0.6710179473196985,1.6311581227960306
3.0676034090902142,2.0054279468086054,1.2810705494688286,0.669938445355612,1.631291021724052
3.08549796737671,2.000754696582628,1.2670014338991766,0.670770520697811,1.638425844092297
3.1036465353552947,1.9960346335256698,1.2502949314628566,0.6755358988150524,1.6448550180719337
3.10446255342298,1.9951823681511096,1.2507384915846247,0.6751938117714456,1.6449069353561874
3.1226111242771264,1.990462307199525,1.2340319746935822,0.6799591942076212,1.6513361149682073
3.124754459100039,1.9901706951109892,1.2343724168314592,0.6788796907927607,1.6514690121499773
3.142649023236637,1.9854974491964543,1.2203032717978994,0.6797117746395395,1.6586038462852004
3.160797599336219,1.9807773920609384,1.2035967285872766,0.6844771648817254,1.6650330362185675
3.162940933494416,1.980485779505469,1.2039371740081486,0.6833976604342901,1.6651659321883072
3.181089512583412,1.9757657245322264,1.1872306158115218,0.68816305518105,1.6715951279524985
3.183685549267092,1.9739487821935449,1.1880780220519789,0.6868804363810364,1.6719561586986358
3.2018341312905094,1.9692287293680757,1.1713714490909237,0.6916458355699059,1.6783853602013517
3.203977464703037,1.9689371162864724,1.1717118981957675,0.6905663299750882,1.678518254802422
3.2235427538573207,1.9625793249354824,1.1554725519975875,0.6945301759802529,1.685432795146755
3.24107401459624,1.957233023426823,1.1414667468559097,0.6955012502684063,1.6927438708367109
3.2439240629652084,1.9553692697045646,1.1396767561509602,0.6981519378764808,1.6923992565960524
3.2619080284675825,1.9484976401412657,1.1261779004154078,0.6989199011274353,1.6999384715700303
3.264758077091919,1.9466338866260786,1.1243879083604966,0.7015705892013453,1.6995938578138365
3.2838706729469016,1.941801431750503,1.1076415551078644,0.7057375633424305,1.7062802814574203
3.286466706859458,1.9399844875404912,1.10848897487954,0.7044549403207278,1.7066413071496427
3.304704692760894,1.9330660529097403,1.092352678566122,0.7091562232545906,1.7134748938935045
3.3229426826659596,1.9261476211938797,1.0762163621918353,0.7138575122495073,1.7203084883708795
3.3251754008417898,1.9236576124872982,1.077127183600652,0.7127138614312138,1.7208457313312064
3.3447407087285237,1.9172998348930608,1.060887743194624,0.716677735566849,1.7277603084143902
3.347590758620988,1.915436082385773,1.0590977444824172,0.7193284259434609,1.727415697037878
3.365465442041658,1.9078445929097032,1.043024783403353,0.7241687011779401,1.7344255266063056
3.3687681936534712,1.9044555102692777,1.0417417490122225,0.726616276192382,1.7343090486069783
3.3877161756353935,1.8974714808047377,1.028203099403169,0.7267858177828473,1.742105491542399
3.405954181621585,1.8905530608711105,1.0120667022281107,0.7314871312877624,1.7489391171318718
3.408804232663397,1.8886893092657056,1.010276697529245,0.7341378236985756,1.7485945079142426
3.4271316302552512,1.8795724988139944,0.9947106382261263,0.7387750024250196,1.755832494979827
3.429981681772378,1.8777087475781291,0.9929206310429965,0.7414256957092565,1.7554878866402268
3.447856384212448,1.8701172719899797,0.9768475745502345,0.7462659999978059,1.7624977528012673
3.4665471066973197,1.8616735327115492,0.9612180675674071,0.7507642207685149,1.7695595401309385
3.4707244718664203,1.8603704323826742,0.9593249580776879,0.7526774926937422,1.7692959060643458
3.488599185570678,1.8527789648962225,0.9432518453038589,0.7575178142602298,1.7763057937084874
3.49190193842181,1.849389883479086,0.9419688038354367,0.7599653918539904,1.7761893181356032
3.5101399729161917,1.8424714840902674,0.9258322640721048,0.7646667492891046,1.783022998041769
3.5134427260466348,1.8390824029348323,0.9245492210313578,0.7671143274712795,1.7829065229988192
3.5299901412960573,1.8309302955612705,0.9085791343905959,0.7726920941061965,1.7898354651548558
3.548228189697773,1.8240119060621578,0.8924425253278785,0.7773934730384158,1.796669171335055
3.55153094346979,1.820622825497714,0.8911594787576874,0.779841052438123,1.796552697539819
3.569768999398799,1.813704441346286,0.8750228321742562,0.7845424430618178,1.8033864179149601
3.5726190550719963,1.8118406932604705,0.8732328036098819,0.7871931435728117,1.8030418172978302
3.589982507026815,1.8028363341313467,0.8577061831903826,0.7924288528451122,1.810022711937416
3.5931958778661133,1.8016456500368254,0.8558527557409368,0.794940580806065,1.809501892749794
3.611433951021962,1.7947272780107921,0.8397160235013769,0.7996419982218574,1.8163356454555153
3.6287080376348184,1.7879213275135228,0.8236189352687059,0.804941883132115,1.822912227581497
3.6320107930190093,1.7845322483700545,0.8223358799510896,0.8073894655788056,1.8227957568644797
3.6492848901146964,1.7777263052102779,0.8062387396588419,0.8126893668728922,1.829372358557155
3.65080764025291,1.7753019122332199,0.8045517723033165,0.8160775021160696,1.8289467987086974
3.6683357945126764,1.7684491893906407,0.7858170094023849,0.8253107817520994,1.834817839425336
3.6715491693722817,1.7672585081516998,0.7839635616522233,0.8278225166056441,1.8342970275629784
3.688823293571444,1.760452583711753,0.767866287248912,0.8331224602312791,1.8408736795870118
3.706460744469319,1.754319731019304,0.7517055572657616,0.8382834492718426,1.847274134313363
3.708346814277705,1.7525684051333394,0.7499551686056595,0.841532619406259,1.8466723640632752
3.725168271331845,1.7472878339519855,0.7333507602525287,0.847035732112855,1.8530209463710672
3.727417657562574,1.7462095727630704,0.7315369666890612,0.8501459318534424,1.852242959671906
3.743727833815723,1.7395160961303937,0.7154791459324983,0.8560444035425874,1.8585625122229366
3.7457785873579383,1.73991639256943,0.7105207084924883,0.8632911156808475,1.856850852201751
3.7634160918015542,1.7337835762461977,0.6943597145982379,0.8684521885101052,1.863251405723151
3.7792736161227105,1.7286154627415409,0.6777946857920061,0.8745538530051594,1.8693429162020316
