time(Yr),siderite,dolomite,calcite,ankerite,quartz,smectite,kaolinite,illite,chlinochlore,albite
0.0,0.0,0.0,0.0,1.0,0.0,0.0,0.0,1.0,1.0,1.0
0.005025125628140704,0.1813031161473088,0.10386857445680976,0.01774193548387097,1.0,0.025149700598802394,0.010152284263959387,0.05678851174934728,1.0,1.0,1.0
0.010050251256281407,0.43059490084985835,0.19660837307896128,0.12983870967741937,1.0,0.05029940119760479,0.015228426395939085,0.10900783289817234,1.0,1.0,1.0
0.01507537688442211,0.6869688385269122,0.27874933757286696,0.2991935483870967,1.0,0.07664670658682635,0.02538071065989848,0.15731070496083552,1.0,1.0,1.0
0.020100502512562814,0.8895184135977336,0.3518812930577636,0.4854838709677419,1.0,0.1029940119760479,0.03553299492385786,0.20234986945169714,1.0,1.0,1.0
0.02512562814070352,0.9886685552407932,0.4149443561208267,0.6524193548387097,1.0,0.12934131736526946,0.04568527918781726,0.2434725848563969,1.0,1.0,1.0
0.03015075376884422,1.0,0.47005829358770534,0.7830645161290323,1.0,0.15688622754491016,0.05583756345177665,0.2819843342036554,1.0,1.0,1.0
0.035175879396984924,0.9575070821529745,0.5166931637519873,0.8798387096774193,1.0,0.18323353293413175,0.07106598984771573,0.3172323759791123,1.0,1.0,1.0
0.04020100502512563,0.8980169971671388,0.5564387917329094,0.9467741935483872,1.0,0.20958083832335328,0.08629441624365482,0.3492167101827676,1.0,1.0,1.0
0.04522613065326633,0.8484419263456091,0.5887652358240594,0.9854838709677419,1.0,0.23712574850299403,0.1015228426395939,0.37924281984334207,1.0,1.0,1.0
0.05025125628140704,0.8087818696883853,0.6147323794382618,1.0,1.0,0.2634730538922156,0.11675126903553297,0.40665796344647526,1.0,1.0,1.0
0.05527638190954774,0.7804532577903683,0.6354001059883414,0.9919354838709677,1.0,0.2898203592814371,0.1319796954314721,0.4314621409921671,1.0,1.0,1.0
0.06030150753768844,0.7606232294617564,0.6507684154742979,0.964516129032258,1.0,0.31616766467065865,0.14720812182741116,0.4549608355091384,1.0,1.0,1.0
0.06532663316582915,0.7507082152974504,0.6613672496025438,0.9217741935483872,1.0,0.3425149700598802,0.16751269035532992,0.4758485639686685,1.0,1.0,1.0
0.07035175879396985,0.7478753541076487,0.6677265500794913,0.8653225806451612,1.0,0.3688622754491017,0.18274111675126903,0.4954308093994778,1.0,1.0,1.0
0.07537688442211055,0.7507082152974504,0.670906200317965,0.7991935483870969,1.0,0.39401197604790417,0.2030456852791878,0.5137075718015667,1.0,1.0,1.0
0.08040201005025126,0.7606232294617564,0.6714361420243774,0.7250000000000001,1.0,0.41916167664670656,0.2182741116751269,0.5300261096605744,1.0,1.0,1.0
0.08542713567839195,0.774787535410765,0.6693163751987281,0.6467741935483872,1.0,0.44431137724550895,0.23857868020304565,0.545691906005222,1.0,1.0,1.0
0.09045226130653267,0.7917847025495751,0.6656067832538421,0.5661290322580645,1.0,0.46826347305389215,0.2588832487309644,0.5607049608355092,1.0,1.0,1.0
0.09547738693467336,0.811614730878187,0.6608373078961315,0.4879032258064517,1.0,0.4922155688622754,0.27411167512690354,0.575065274151436,1.0,1.0,1.0
0.10050251256281408,0.8342776203966006,0.6550079491255962,0.41290322580645167,1.0,0.5149700598802395,0.29441624365482233,0.5887728459530026,1.0,1.0,1.0
0.10552763819095477,0.856940509915014,0.6497085320614733,0.34596774193548385,1.0,0.5377245508982036,0.30964467005076135,0.6024804177545692,1.0,1.0,1.0
0.11055276381909548,0.8796033994334278,0.6444091149973503,0.2862903225806452,1.0,0.5592814371257484,0.3248730964467005,0.6155352480417755,1.0,1.0,1.0
0.11557788944723618,0.9022662889518412,0.6406995230524642,0.23467741935483868,1.0,0.5796407185628742,0.34517766497461927,0.6292428198433421,1.0,1.0,1.0
0.12060301507537688,0.9220963172804532,0.6385797562268151,0.18951612903225803,1.0,0.6,0.36040609137055835,0.6429503916449086,1.0,1.0,1.0
0.12562814070351758,0.9390934844192633,0.6385797562268151,0.15161290322580642,1.0,0.6191616766467065,0.3756345177664974,0.6573107049608355,1.0,1.0,1.0
0.1306532663316583,0.9532577903682719,0.6406995230524642,0.12016129032258063,1.0,0.6383233532934133,0.3908629441624365,0.6723237597911228,1.0,1.0,1.0
0.135678391959799,0.9645892351274786,0.6449390567037626,0.09435483870967742,1.0,0.6562874251497005,0.40101522842639586,0.68733681462141,1.0,1.0,1.0
0.1407035175879397,0.9745042492917847,0.6512983571807102,0.07338709677419356,1.0,0.6742514970059881,0.416243654822335,0.7030026109660575,1.0,1.0,1.0
0.1457286432160804,0.9830028328611898,0.6592474827768946,0.05806451612903226,1.0,0.6910179640718563,0.431472081218274,0.718668407310705,1.0,1.0,1.0
0.1507537688442211,0.9886685552407932,0.6687864334923159,0.046774193548387105,1.0,0.7077844311377246,0.44162436548223344,0.7343342036553526,1.0,1.0,1.0
0.15577889447236182,0.9929178470254957,0.679915209326974,0.040322580645161296,1.0,0.7233532934131737,0.4517766497461928,0.7493472584856398,1.0,1.0,1.0
0.16080402010050251,0.9943342776203966,0.6921038685744568,0.03629032258064516,1.0,0.7389221556886227,0.46700507614213194,0.7637075718015667,1.0,1.0,1.0
0.1658291457286432,0.9957507082152975,0.7058823529411765,0.03629032258064516,1.0,0.7544910179640719,0.4771573604060913,0.7774151436031332,1.0,1.0,1.0
0.1708542713567839,0.9943342776203966,0.7201907790143085,0.03870967741935485,1.0,0.770059880239521,0.4873096446700507,0.7898172323759792,1.0,1.0,1.0
0.17587939698492464,0.9929178470254957,0.7355590885002651,0.043548387096774194,1.0,0.7856287425149701,0.4974619289340101,0.8015665796344648,1.0,1.0,1.0
0.18090452261306533,0.9900849858356939,0.7519872813990461,0.05,1.0,0.7988023952095809,0.5076142131979695,0.8126631853785902,1.0,1.0,1.0
0.18592964824120603,0.9858356940509915,0.7684154742978273,0.05806451612903226,1.0,0.8131736526946108,0.5177664974619289,0.8231070496083551,1.0,1.0,1.0
0.19095477386934673,0.9801699716713881,0.7853736089030207,0.06774193548387096,1.0,0.8251497005988024,0.5279187817258882,0.8328981723237598,1.0,1.0,1.0
0.19597989949748743,0.9745042492917847,0.8028616852146264,0.07661290322580644,1.0,0.8359281437125748,0.5380710659898477,0.8420365535248041,1.0,1.0,1.0
0.20100502512562815,0.9688385269121813,0.8198198198198199,0.08629032258064517,1.0,0.8467065868263474,0.5482233502538071,0.8505221932114883,1.0,1.0,1.0
0.20603015075376885,0.9617563739376771,0.8373078961314255,0.09596774193548388,1.0,0.8550898203592814,0.5583756345177665,0.8590078328981723,1.0,1.0,1.0
0.21105527638190955,0.9546742209631728,0.854266030736619,0.10403225806451612,1.0,0.8622754491017964,0.5634517766497461,0.8668407310704962,1.0,1.0,1.0
0.21608040201005024,0.9475920679886685,0.8706942236354002,0.11129032258064515,1.0,0.8670658682634731,0.5685279187817258,0.8740208877284595,1.0,1.0,1.0
0.22110552763819097,0.9405099150141643,0.8865924748277689,0.11693548387096775,1.0,0.8718562874251498,0.5736040609137055,0.8805483028720626,1.0,1.0,1.0
0.22613065326633167,0.9334277620396599,0.9019607843137256,0.12016129032258063,1.0,0.874251497005988,0.5786802030456852,0.8857702349869453,1.0,1.0,1.0
0.23115577889447236,0.9263456090651558,0.9167991520932697,0.12096774193548389,1.0,0.8754491017964071,0.5837563451776648,0.8909921671018276,1.0,1.0,1.0
0.23618090452261306,0.9192634560906516,0.9300476947535772,0.11854838709677419,1.0,0.8754491017964071,0.5888324873096445,0.8949086161879894,1.0,1.0,1.0
0.24120603015075376,0.9135977337110482,0.9422363540010599,0.11290322580645161,1.0,0.8754491017964071,0.5888324873096445,0.8981723237597912,1.0,1.0,1.0
0.24623115577889448,0.9079320113314446,0.9533651298357181,0.10322580645161292,1.0,0.8754491017964071,0.5939086294416244,0.9007832898172325,1.0,1.0,1.0
0.25125628140703515,0.9022662889518412,0.9629040805511394,0.09193548387096774,1.0,0.874251497005988,0.5939086294416244,0.9033942558746736,1.0,1.0,1.0
0.2562814070351759,0.8980169971671388,0.971383147853736,0.08064516129032258,1.0,0.873053892215569,0.5989847715736041,0.9053524804177547,1.0,1.0,1.0
0.2613065326633166,0.895184135977337,0.9788023317435083,0.07016129032258066,1.0,0.873053892215569,0.5989847715736041,0.9066579634464753,1.0,1.0,1.0
0.2663316582914573,0.8923512747875354,0.9846316905140435,0.0620967741935484,1.0,0.8718562874251498,0.5989847715736041,0.9086161879895561,1.0,1.0,1.0
0.271356783919598,0.8895184135977336,0.9894011658717542,0.05483870967741936,1.0,0.8706586826347306,0.6040609137055837,0.9099216710182767,1.0,1.0,1.0
0.27638190954773867,0.8881019830028329,0.9931107578166402,0.04919354838709678,1.0,0.8706586826347306,0.6040609137055837,0.9112271540469975,1.0,1.0,1.0
0.2814070351758794,0.886685552407932,0.996290408055114,0.044354838709677415,1.0,0.8694610778443115,0.6040609137055837,0.912532637075718,1.0,1.0,1.0
0.2864321608040201,0.886685552407932,0.9984101748807631,0.041129032258064524,1.0,0.8682634730538923,0.6091370558375634,0.9138381201044388,1.0,1.0,1.0
0.2914572864321608,0.886685552407932,0.9994700582935877,0.03870967741935485,1.0,0.8670658682634731,0.6091370558375634,0.9151436031331593,1.0,1.0,1.0
0.2964824120603015,0.886685552407932,1.0,0.037903225806451606,1.0,0.8670658682634731,0.6091370558375634,0.9157963446475197,1.0,1.0,1.0
0.3015075376884422,0.886685552407932,1.0,0.037096774193548385,1.0,0.8658682634730539,0.6091370558375634,0.9171018276762403,1.0,1.0,1.0
0.3065326633165829,0.8881019830028329,0.9989401165871755,0.037903225806451606,1.0,0.8658682634730539,0.6142131979695431,0.9177545691906006,1.0,1.0,1.0
0.31155778894472363,0.8895184135977336,0.9978802331743509,0.03870967741935485,1.0,0.8646706586826347,0.6142131979695431,0.9184073107049607,1.0,1.0,1.0
0.3165829145728643,0.8909348441926346,0.9957604663487016,0.040322580645161296,1.0,0.8634730538922156,0.6142131979695431,0.9190600522193212,1.0,1.0,1.0
0.32160804020100503,0.8923512747875354,0.9936406995230526,0.042741935483870966,1.0,0.8634730538922156,0.6142131979695431,0.9190600522193212,1.0,1.0,1.0
0.32663316582914576,0.8937677053824363,0.9909909909909911,0.04596774193548386,1.0,0.8622754491017964,0.6142131979695431,0.9197127937336815,1.0,1.0,1.0
0.3316582914572864,0.895184135977337,0.9883412824589296,0.04919354838709678,1.0,0.8622754491017964,0.6142131979695431,0.9197127937336815,1.0,1.0,1.0
0.33668341708542715,0.8980169971671388,0.9851616322204558,0.05241935483870967,1.0,0.8622754491017964,0.6142131979695431,0.9197127937336815,1.0,1.0,1.0
0.3417085427135678,0.8994334277620397,0.981981981981982,0.05645161290322581,1.0,0.8610778443113772,0.6142131979695431,0.9197127937336815,1.0,1.0,1.0
0.34673366834170855,0.9022662889518412,0.9782723900370959,0.06048387096774193,1.0,0.8610778443113772,0.6192893401015228,0.9197127937336815,1.0,1.0,1.0
0.35175879396984927,0.9036827195467422,0.9750927397986222,0.06451612903225808,1.0,0.8610778443113772,0.6192893401015228,0.9197127937336815,1.0,1.0,1.0
0.35678391959798994,0.9050991501416431,0.9719130895601484,0.06854838709677419,1.0,0.8610778443113772,0.6192893401015228,0.9197127937336815,1.0,1.0,1.0
0.36180904522613067,0.9079320113314446,0.9682034976152624,0.07258064516129033,1.0,0.8610778443113772,0.6192893401015228,0.9190600522193212,1.0,1.0,1.0
0.36683417085427134,0.9093484419263456,0.9655537890832009,0.07661290322580644,1.0,0.8610778443113772,0.6243654822335025,0.9190600522193212,1.0,1.0,1.0
0.37185929648241206,0.9107648725212465,0.9623741388447271,0.07983870967741936,1.0,0.8610778443113772,0.6243654822335025,0.9184073107049607,1.0,1.0,1.0
0.3768844221105528,0.9121813031161473,0.9602543720190779,0.08306451612903226,1.0,0.8610778443113772,0.6294416243654822,0.9184073107049607,1.0,1.0,1.0
0.38190954773869346,0.9135977337110482,0.9581346051934287,0.08548387096774195,1.0,0.8610778443113772,0.6345177664974618,0.9177545691906006,1.0,1.0,1.0
0.3869346733668342,0.9135977337110482,0.9560148383677796,0.08790322580645162,1.0,0.8622754491017964,0.6345177664974618,0.9171018276762403,1.0,1.0,1.0
0.39195979899497485,0.915014164305949,0.954954954954955,0.09032258064516129,1.0,0.8622754491017964,0.6395939086294415,0.9164490861618798,1.0,1.0,1.0
0.3969849246231156,0.915014164305949,0.9533651298357181,0.09193548387096774,1.0,0.8634730538922156,0.6395939086294415,0.9157963446475197,1.0,1.0,1.0
0.4020100502512563,0.9164305949008499,0.9523052464228935,0.09354838709677421,1.0,0.8646706586826347,0.6446700507614214,0.9151436031331593,1.0,1.0,1.0
0.40703517587939697,0.9164305949008499,0.9517753047164812,0.09516129032258065,1.0,0.8646706586826347,0.6497461928934011,0.9151436031331593,1.0,1.0,1.0
0.4120603015075377,0.9164305949008499,0.951245363010069,0.09596774193548388,1.0,0.8658682634730539,0.6497461928934011,0.9144908616187989,1.0,1.0,1.0
0.41708542713567837,0.9164305949008499,0.9507154213036566,0.0967741935483871,1.0,0.8670658682634731,0.6548223350253808,0.9144908616187989,1.0,1.0,1.0
0.4221105527638191,0.9164305949008499,0.9507154213036566,0.09758064516129032,1.0,0.8682634730538923,0.6548223350253808,0.9144908616187989,1.0,1.0,1.0
0.4271356783919598,0.915014164305949,0.9501854795972443,0.09838709677419355,1.0,0.8694610778443115,0.6598984771573604,0.9144908616187989,1.0,1.0,1.0
0.4321608040201005,0.915014164305949,0.9501854795972443,0.09838709677419355,1.0,0.8706586826347306,0.6598984771573604,0.9144908616187989,1.0,1.0,1.0
0.4371859296482412,0.915014164305949,0.9501854795972443,0.09838709677419355,1.0,0.8718562874251498,0.6649746192893401,0.9151436031331593,1.0,1.0,1.0
0.44221105527638194,0.9135977337110482,0.9507154213036566,0.09919354838709678,1.0,0.873053892215569,0.6649746192893401,0.9157963446475197,1.0,1.0,1.0
0.4472361809045226,0.9135977337110482,0.9507154213036566,0.09919354838709678,1.0,0.874251497005988,0.6700507614213198,0.9164490861618798,1.0,1.0,1.0
0.45226130653266333,0.9135977337110482,0.9507154213036566,0.09919354838709678,1.0,0.8766467065868263,0.6700507614213198,0.9177545691906006,1.0,1.0,1.0
0.457286432160804,0.9121813031161473,0.9507154213036566,0.09919354838709678,1.0,0.8778443113772455,0.6700507614213198,0.9190600522193212,1.0,1.0,1.0
0.4623115577889447,0.9121813031161473,0.9507154213036566,0.09838709677419355,1.0,0.8790419161676647,0.6751269035532995,0.920365535248042,1.0,1.0,1.0
0.46733668341708545,0.9107648725212465,0.9507154213036566,0.09838709677419355,1.0,0.8802395209580839,0.6751269035532995,0.9216710182767625,1.0,1.0,1.0
0.4723618090452261,0.9107648725212465,0.9501854795972443,0.09838709677419355,1.0,0.8826347305389222,0.6802030456852791,0.922976501305483,1.0,1.0,1.0
0.47738693467336685,0.9093484419263456,0.9501854795972443,0.09838709677419355,1.0,0.8838323353293414,0.6802030456852791,0.9242819843342038,1.0,1.0,1.0
0.4824120603015075,0.9093484419263456,0.9501854795972443,0.09838709677419355,1.0,0.8850299401197605,0.6852791878172588,0.9262402088772848,1.0,1.0,1.0
0.48743718592964824,0.9079320113314446,0.9496555378908321,0.09838709677419355,1.0,0.8874251497005988,0.6852791878172588,0.9275456919060052,1.0,1.0,1.0
0.49246231155778897,0.9079320113314446,0.9491255961844197,0.09838709677419355,1.0,0.888622754491018,0.6903553299492385,0.928851174934726,1.0,1.0,1.0
0.49748743718592964,0.9079320113314446,0.9485956544780075,0.09838709677419355,1.0,0.8898203592814372,0.6903553299492385,0.9301566579634466,1.0,1.0,1.0
0.5025125628140703,0.9065155807365439,0.9480657127715951,0.09838709677419355,1.0,0.8910179640718562,0.6954314720812184,0.9314621409921671,1.0,1.0,1.0
0.507537688442211,0.9065155807365439,0.9475357710651828,0.09919354838709678,1.0,0.8934131736526946,0.700507614213198,0.9327676240208879,1.0,1.0,1.0
0.5125628140703518,0.9065155807365439,0.9470058293587706,0.09919354838709678,1.0,0.8946107784431138,0.700507614213198,0.933420365535248,1.0,1.0,1.0
0.5175879396984925,0.9065155807365439,0.9464758876523582,0.09999999999999998,1.0,0.895808383233533,0.7055837563451777,0.9347258485639688,1.0,1.0,1.0
0.5226130653266332,0.9050991501416431,0.9454160042395336,0.10080645161290323,1.0,0.8982035928143712,0.7055837563451777,0.9353785900783289,1.0,1.0,1.0
0.5276381909547738,0.9050991501416431,0.9443561208267092,0.10161290322580648,1.0,0.8994011976047904,0.7106598984771574,0.9360313315926893,1.0,1.0,1.0
0.5326633165829145,0.9050991501416431,0.9432962374138846,0.10241935483870968,1.0,0.9005988023952096,0.7157360406091371,0.9366840731070497,1.0,1.0,1.0
0.5376884422110553,0.9050991501416431,0.9427662957074722,0.10322580645161292,1.0,0.9017964071856287,0.7157360406091371,0.9366840731070497,1.0,1.0,1.0
0.542713567839196,0.9050991501416431,0.9411764705882353,0.10403225806451612,1.0,0.9041916167664671,0.7208121827411167,0.93733681462141,1.0,1.0,1.0
0.5477386934673367,0.9050991501416431,0.9401165871754108,0.10564516129032257,1.0,0.9053892215568863,0.7208121827411167,0.93733681462141,1.0,1.0,1.0
0.5527638190954773,0.9050991501416431,0.9390567037625862,0.10645161290322581,1.0,0.9065868263473055,0.7258883248730964,0.93733681462141,1.0,1.0,1.0
0.5577889447236181,0.9050991501416431,0.9379968203497616,0.10725806451612901,1.0,0.9077844311377246,0.7309644670050761,0.93733681462141,1.0,1.0,1.0
0.5628140703517588,0.9050991501416431,0.9364069952305247,0.10887096774193551,1.0,0.9101796407185629,0.7309644670050761,0.93733681462141,1.0,1.0,1.0
0.5678391959798995,0.9050991501416431,0.9353471118177001,0.10967741935483871,1.0,0.9113772455089821,0.7360406091370558,0.93733681462141,1.0,1.0,1.0
0.5728643216080402,0.9065155807365439,0.9337572866984633,0.11129032258064515,1.0,0.9125748502994011,0.7411167512690356,0.93733681462141,1.0,1.0,1.0
0.5778894472361809,0.9065155807365439,0.9326974032856387,0.11290322580645161,1.0,0.9137724550898203,0.7461928934010152,0.93733681462141,1.0,1.0,1.0
0.5829145728643216,0.9065155807365439,0.9311075781664018,0.11370967741935485,1.0,0.9149700598802395,0.7461928934010152,0.93733681462141,1.0,1.0,1.0
0.5879396984924623,0.9065155807365439,0.9300476947535772,0.1153225806451613,1.0,0.9173652694610779,0.751269035532995,0.93733681462141,1.0,1.0,1.0
0.592964824120603,0.9065155807365439,0.9284578696343403,0.1161290322580645,1.0,0.918562874251497,0.7563451776649747,0.93733681462141,1.0,1.0,1.0
0.5979899497487438,0.9065155807365439,0.9273979862215157,0.11774193548387099,1.0,0.9197604790419162,0.7563451776649747,0.93733681462141,1.0,1.0,1.0
0.6030150753768844,0.9065155807365439,0.9258081611022788,0.11854838709677419,1.0,0.9209580838323354,0.7614213197969543,0.93733681462141,1.0,1.0,1.0
0.6080402010050251,0.9065155807365439,0.9247482776894542,0.12016129032258063,1.0,0.9221556886227545,0.766497461928934,0.93733681462141,1.0,1.0,1.0
0.6130653266331658,0.9079320113314446,0.9231584525702173,0.12096774193548389,1.0,0.9233532934131736,0.766497461928934,0.9379895561357702,1.0,1.0,1.0
0.6180904522613065,0.9079320113314446,0.9220985691573927,0.12258064516129033,1.0,0.9245508982035928,0.7715736040609137,0.9379895561357702,1.0,1.0,1.0
0.6231155778894473,0.9079320113314446,0.9210386857445682,0.12338709677419353,1.0,0.925748502994012,0.7766497461928934,0.9379895561357702,1.0,1.0,1.0
0.628140703517588,0.9079320113314446,0.9199788023317436,0.12419354838709677,1.0,0.9269461077844312,0.7766497461928934,0.9386422976501306,1.0,1.0,1.0
0.6331658291457286,0.9079320113314446,0.918918918918919,0.12500000000000003,1.0,0.9281437125748504,0.781725888324873,0.9386422976501306,1.0,1.0,1.0
0.6381909547738693,0.9079320113314446,0.9178590355060944,0.12580645161290321,1.0,0.9293413173652695,0.7868020304568527,0.939295039164491,1.0,1.0,1.0
0.6432160804020101,0.9079320113314446,0.9173290937996821,0.12661290322580646,1.0,0.9305389221556887,0.7868020304568527,0.9399477806788511,1.0,1.0,1.0
0.6482412060301508,0.9079320113314446,0.9162692103868575,0.12741935483870967,1.0,0.9317365269461079,0.7918781725888325,0.9399477806788511,1.0,1.0,1.0
0.6532663316582915,0.9079320113314446,0.9157392686804452,0.1282258064516129,1.0,0.9317365269461079,0.7969543147208122,0.9406005221932116,1.0,1.0,1.0
0.6582914572864321,0.9079320113314446,0.9146793852676206,0.12903225806451613,1.0,0.932934131736527,0.7969543147208122,0.9412532637075719,1.0,1.0,1.0
0.6633165829145728,0.9079320113314446,0.9141494435612084,0.12983870967741937,1.0,0.934131736526946,0.802030456852792,0.941906005221932,1.0,1.0,1.0
0.6683417085427136,0.9079320113314446,0.913619501854796,0.12983870967741937,1.0,0.9353293413173652,0.802030456852792,0.9432114882506528,1.0,1.0,1.0
0.6733668341708543,0.9079320113314446,0.9130895601483837,0.13064516129032255,1.0,0.9365269461077844,0.8071065989847716,0.9438642297650133,1.0,1.0,1.0
0.678391959798995,0.9079320113314446,0.9125596184419714,0.13145161290322582,1.0,0.9365269461077844,0.8121827411167513,0.9445169712793734,1.0,1.0,1.0
0.6834170854271356,0.9079320113314446,0.9114997350291468,0.13145161290322582,1.0,0.9377245508982036,0.8121827411167513,0.9458224543080942,1.0,1.0,1.0
0.6884422110552764,0.9079320113314446,0.9109697933227345,0.132258064516129,1.0,0.9389221556886228,0.817258883248731,0.9464751958224543,1.0,1.0,1.0
0.6934673366834171,0.9079320113314446,0.9104398516163222,0.132258064516129,1.0,0.9401197604790419,0.817258883248731,0.9471279373368147,1.0,1.0,1.0
0.6984924623115578,0.9079320113314446,0.9099099099099099,0.132258064516129,1.0,0.9413173652694611,0.8223350253807106,0.9484334203655352,1.0,1.0,1.0
0.7035175879396985,0.9079320113314446,0.9093799682034976,0.13306451612903225,1.0,0.9425149700598803,0.8274111675126903,0.949738903394256,1.0,1.0,1.0
0.7085427135678392,0.9079320113314446,0.9088500264970854,0.13306451612903225,1.0,0.9425149700598803,0.8274111675126903,0.9503916449086162,1.0,1.0,1.0
0.7135678391959799,0.9079320113314446,0.908320084790673,0.13387096774193546,1.0,0.9437125748502995,0.83248730964467,0.951697127937337,1.0,1.0,1.0
0.7185929648241206,0.9079320113314446,0.9077901430842608,0.13387096774193546,1.0,0.9449101796407186,0.83248730964467,0.9523498694516973,1.0,1.0,1.0
0.7236180904522613,0.9079320113314446,0.9072602013778486,0.13387096774193546,1.0,0.9461077844311377,0.8375634517766497,0.9536553524804179,1.0,1.0,1.0
0.7286432160804021,0.9079320113314446,0.9067302596714362,0.1346774193548387,1.0,0.9473053892215569,0.8426395939086295,0.9549608355091384,1.0,1.0,1.0
0.7336683417085427,0.9079320113314446,0.9062003179650239,0.1346774193548387,1.0,0.9485029940119761,0.8426395939086295,0.9556135770234987,1.0,1.0,1.0
0.7386934673366834,0.9079320113314446,0.9056703762586116,0.1354838709677419,1.0,0.9497005988023953,0.8477157360406091,0.9569190600522193,1.0,1.0,1.0
0.7437185929648241,0.9079320113314446,0.9046104928457871,0.1354838709677419,1.0,0.9508982035928143,0.8477157360406091,0.9575718015665796,1.0,1.0,1.0
0.7487437185929648,0.9079320113314446,0.9040805511393747,0.13629032258064516,1.0,0.9520958083832335,0.8527918781725888,0.9588772845953002,1.0,1.0,1.0
0.7537688442211056,0.9079320113314446,0.9035506094329624,0.13629032258064516,1.0,0.9532934131736527,0.8527918781725888,0.9595300261096605,1.0,1.0,1.0
0.7587939698492462,0.9079320113314446,0.9024907260201378,0.1370967741935484,1.0,0.955688622754491,0.8578680203045685,0.960182767624021,1.0,1.0,1.0
0.7638190954773869,0.9079320113314446,0.9019607843137256,0.1370967741935484,1.0,0.9568862275449102,0.8629441624365483,0.9608355091383813,1.0,1.0,1.0
0.7688442211055276,0.9079320113314446,0.9009009009009009,0.1379032258064516,1.0,0.9580838323353293,0.8629441624365483,0.9614882506527415,1.0,1.0,1.0
0.7738693467336684,0.9079320113314446,0.8998410174880763,0.1379032258064516,1.0,0.9592814371257485,0.8680203045685279,0.9621409921671019,1.0,1.0,1.0
0.7788944723618091,0.9079320113314446,0.8987811340752517,0.13870967741935483,1.0,0.9604790419161676,0.8680203045685279,0.9627937336814623,1.0,1.0,1.0
0.7839195979899497,0.9079320113314446,0.8982511923688394,0.13951612903225805,1.0,0.962874251497006,0.8730964467005076,0.9634464751958224,1.0,1.0,1.0
0.7889447236180904,0.9079320113314446,0.8971913089560148,0.13951612903225805,1.0,0.9640718562874252,0.8730964467005076,0.9640992167101828,1.0,1.0,1.0
0.7939698492462312,0.9079320113314446,0.8961314255431903,0.1403225806451613,1.0,0.9652694610778444,0.8781725888324873,0.9647519582245432,1.0,1.0,1.0
0.7989949748743719,0.9079320113314446,0.8950715421303658,0.1411290322580645,1.0,0.9664670658682635,0.8832487309644669,0.9654046997389033,1.0,1.0,1.0
0.8040201005025126,0.9079320113314446,0.8940116587175412,0.1411290322580645,1.0,0.9676646706586827,0.8832487309644669,0.9654046997389033,1.0,1.0,1.0
0.8090452261306532,0.9079320113314446,0.8929517753047165,0.14193548387096774,1.0,0.970059880239521,0.8883248730964467,0.9660574412532638,1.0,1.0,1.0
0.8140703517587939,0.9079320113314446,0.8918918918918919,0.14274193548387093,1.0,0.97125748502994,0.8883248730964467,0.9667101827676241,1.0,1.0,1.0
0.8190954773869347,0.9079320113314446,0.8908320084790673,0.14354838709677417,1.0,0.9724550898203592,0.8934010152284264,0.9667101827676241,1.0,1.0,1.0
0.8241206030150754,0.9079320113314446,0.8892421833598304,0.14435483870967744,1.0,0.9736526946107784,0.8934010152284264,0.9673629242819842,1.0,1.0,1.0
0.8291457286432161,0.9079320113314446,0.8881822999470059,0.14435483870967744,1.0,0.9760479041916168,0.8984771573604061,0.9673629242819842,1.0,1.0,1.0
0.8341708542713567,0.9079320113314446,0.8871224165341813,0.14516129032258063,1.0,0.9772455089820359,0.9035532994923858,0.9680156657963447,1.0,1.0,1.0
0.8391959798994975,0.9079320113314446,0.8860625331213567,0.14596774193548387,1.0,0.9784431137724551,0.9035532994923858,0.968668407310705,1.0,1.0,1.0
0.8442211055276382,0.9079320113314446,0.8844727080021199,0.14677419354838708,1.0,0.9796407185628743,0.9086294416243654,0.968668407310705,1.0,1.0,1.0
0.8492462311557789,0.9079320113314446,0.8834128245892953,0.14758064516129032,1.0,0.9808383233532935,0.9086294416243654,0.9693211488250655,1.0,1.0,1.0
0.8542713567839196,0.9079320113314446,0.8823529411764706,0.14838709677419354,1.0,0.9820359281437125,0.9137055837563451,0.9693211488250655,1.0,1.0,1.0
0.8592964824120602,0.9079320113314446,0.8807631160572338,0.14919354838709678,1.0,0.9832335329341317,0.9187817258883249,0.9699738903394256,1.0,1.0,1.0
0.864321608040201,0.9079320113314446,0.8797032326444091,0.14999999999999997,1.0,0.9856287425149701,0.9187817258883249,0.970626631853786,1.0,1.0,1.0
0.8693467336683417,0.9079320113314446,0.8786433492315846,0.1508064516129032,1.0,0.9868263473053893,0.9238578680203046,0.970626631853786,1.0,1.0,1.0
0.8743718592964824,0.9079320113314446,0.8770535241123476,0.15161290322580642,1.0,0.9880239520958084,0.9238578680203046,0.9712793733681464,1.0,1.0,1.0
0.8793969849246231,0.9079320113314446,0.8759936406995231,0.15241935483870966,1.0,0.9892215568862276,0.9289340101522842,0.9719321148825065,1.0,1.0,1.0
0.8844221105527639,0.9079320113314446,0.8744038155802861,0.1532258064516129,1.0,0.9904191616766468,0.9289340101522842,0.9725848563968669,1.0,1.0,1.0
0.8894472361809045,0.9079320113314446,0.8733439321674616,0.15403225806451612,1.0,0.9904191616766468,0.9340101522842639,0.9725848563968669,1.0,1.0,1.0
0.8944723618090452,0.9079320113314446,0.872284048754637,0.15483870967741936,1.0,0.991616766467066,0.9390862944162437,0.9732375979112273,1.0,1.0,1.0
0.8994974874371859,0.9079320113314446,0.8706942236354002,0.15564516129032255,1.0,0.992814371257485,0.9390862944162437,0.9738903394255874,1.0,1.0,1.0
0.9045226130653267,0.9079320113314446,0.8696343402225756,0.15645161290322582,1.0,0.9940119760479041,0.9441624365482234,0.9745430809399478,1.0,1.0,1.0
0.9095477386934674,0.9079320113314446,0.868574456809751,0.157258064516129,1.0,0.9952095808383233,0.9441624365482234,0.9751958224543082,1.0,1.0,1.0
0.914572864321608,0.9079320113314446,0.8669846316905141,0.15806451612903225,1.0,0.9952095808383233,0.949238578680203,0.9758485639686686,1.0,1.0,1.0
0.9195979899497487,0.9079320113314446,0.8659247482776895,0.15887096774193546,1.0,0.9964071856287425,0.949238578680203,0.9771540469973892,1.0,1.0,1.0
0.9246231155778895,0.9079320113314446,0.8648648648648648,0.1596774193548387,1.0,0.9976047904191617,0.9543147208121827,0.9778067885117495,1.0,1.0,1.0
0.9296482412060302,0.9079320113314446,0.8638049814520403,0.16048387096774194,1.0,0.9976047904191617,0.9593908629441624,0.97911227154047,1.0,1.0,1.0
0.9346733668341709,0.9079320113314446,0.8622151563328035,0.16129032258064516,1.0,0.9988023952095808,0.9593908629441624,0.9797650130548304,1.0,1.0,1.0
0.9396984924623115,0.9079320113314446,0.8611552729199788,0.1620967741935484,1.0,0.9988023952095808,0.9644670050761421,0.9810704960835509,1.0,1.0,1.0
0.9447236180904522,0.9079320113314446,0.8600953895071543,0.16290322580645158,1.0,0.9988023952095808,0.9644670050761421,0.9817232375979114,1.0,1.0,1.0
0.949748743718593,0.9079320113314446,0.8590355060943297,0.16451612903225804,1.0,0.9988023952095808,0.9695431472081217,0.9830287206266318,1.0,1.0,1.0
0.9547738693467337,0.9079320113314446,0.8579756226815051,0.16532258064516128,1.0,1.0,0.9695431472081217,0.9843342036553526,1.0,1.0,1.0
0.9597989949748744,0.9079320113314446,0.8569157392686805,0.1661290322580645,1.0,1.0,0.9746192893401014,0.9856396866840732,1.0,1.0,1.0
0.964824120603015,0.9079320113314446,0.8558558558558559,0.16693548387096774,1.0,1.0,0.9796954314720812,0.9875979112271541,1.0,1.0,1.0
0.9698492462311558,0.9079320113314446,0.8547959724430313,0.16774193548387098,1.0,1.0,0.9796954314720812,0.9889033942558746,1.0,1.0,1.0
0.9748743718592965,0.9079320113314446,0.854266030736619,0.1685483870967742,1.0,1.0,0.9847715736040609,0.9902088772845954,1.0,1.0,1.0
0.9798994974874372,0.9079320113314446,0.8532061473237944,0.16935483870967744,1.0,1.0,0.9847715736040609,0.9921671018276763,1.0,1.0,1.0
0.9849246231155779,0.9079320113314446,0.8521462639109698,0.17016129032258062,1.0,0.9988023952095808,0.9898477157360407,0.9941253263707572,1.0,1.0,1.0
0.9899497487437185,0.9079320113314446,0.8516163222045575,0.17177419354838708,1.0,0.9988023952095808,0.9898477157360407,0.9960835509138382,1.0,1.0,1.0
0.9949748743718593,0.9079320113314446,0.8505564387917329,0.17258064516129032,1.0,0.9988023952095808,0.9949238578680203,0.9980417754569191,1.0,1.0,1.0
1.0,0.9079320113314446,0.8500264970853207,0.17338709677419353,1.0,0.9976047904191617,1.0,1.0,1.0,1.0,1.0
